<?xml version="1.0" encoding="UTF-8" standalone="no"?>
<svg width="100%" height="100%" viewBox="0 0 1082.835 1417.323" xmlns="http://www.w3.org/2000/svg"><g>
</g><g style="stroke:rgb(0,0,0); fill:none; stroke-width:1.000mm">
</g><g style="stroke:rgb(0,0,0); fill:none; stroke-width:0.100mm">
<path d="M 0.000, 1417.323   L 0.000, 592.654   L 1082.835, 592.654   L 1082.835, 1417.323   L 0.000, 1417.323  "/>
<path d="M 245.957, 1408.909   L 279.894, 1368.464  "/>
<path d="M 232.386, 1414.453   L 282.997, 1354.136  "/>
<path d="M 221.595, 1416.682   L 283.319, 1343.123  "/>
<path d="M 212.154, 1417.304   L 282.292, 1333.717  "/>
<path d="M 203.741, 1416.700   L 280.237, 1325.536  "/>
<path d="M 196.001, 1415.295   L 277.508, 1318.157  "/>
<path d="M 188.839, 1413.200   L 274.202, 1311.468  "/>
<path d="M 182.219, 1410.459   L 270.353, 1305.425  "/>
<path d="M 176.084, 1407.140   L 266.019, 1299.960  "/>
<path d="M 170.384, 1403.304   L 261.252, 1295.012  "/>
<path d="M 165.105, 1398.965   L 256.061, 1290.567  "/>
<path d="M 160.249, 1394.123   L 250.450, 1286.626  "/>
<path d="M 155.824, 1388.766   L 244.406, 1283.198  "/>
<path d="M 151.851, 1382.871   L 237.910, 1280.309  "/>
<path d="M 251.909, 1263.626   L 277.431, 1233.210  "/>
<path d="M 148.367, 1376.393   L 230.926, 1278.002  "/>
<path d="M 236.428, 1271.445   L 282.444, 1216.607  "/>
<path d="M 145.521, 1369.155   L 223.304, 1276.457  "/>
<path d="M 224.941, 1274.506   L 283.463, 1204.762  "/>
<path d="M 102.483, 1409.815   L 138.752, 1366.592  "/>
<path d="M 143.334, 1361.131   L 215.022, 1275.697  "/>
<path d="M 215.207, 1275.477   L 282.729, 1195.007  "/>
<path d="M 89.320, 1414.873   L 141.447, 1352.750  "/>
<path d="M 141.979, 1352.116   L 205.908, 1275.928  "/>
<path d="M 206.418, 1275.321   L 281.049, 1186.379  "/>
<path d="M 78.760, 1416.827   L 141.538, 1342.012  "/>
<path d="M 141.948, 1341.524   L 195.472, 1277.736  "/>
<path d="M 198.507, 1274.118   L 278.491, 1178.798  "/>
<path d="M 69.476, 1417.262   L 140.354, 1332.792  "/>
<path d="M 144.100, 1328.329   L 182.851, 1282.147  "/>
<path d="M 191.190, 1272.209   L 275.340, 1171.923  "/>
<path d="M 61.125, 1416.584   L 138.236, 1324.687  "/>
<path d="M 184.397, 1269.675   L 271.665, 1165.673  "/>
<path d="M 53.441, 1415.112   L 135.452, 1317.375  "/>
<path d="M 178.080, 1266.573   L 267.513, 1159.991  "/>
<path d="M 46.349, 1412.934   L 132.076, 1310.769  "/>
<path d="M 172.210, 1262.939   L 262.915, 1154.840  "/>
<path d="M 39.804, 1410.104   L 128.153, 1304.814  "/>
<path d="M 166.786, 1258.773   L 257.870, 1150.223  "/>
<path d="M 33.713, 1406.733   L 123.775, 1299.401  "/>
<path d="M 161.801, 1254.084   L 252.387, 1146.127  "/>
<path d="M 28.055, 1402.846   L 118.965, 1294.504  "/>
<path d="M 157.244, 1248.885   L 246.476, 1142.543  "/>
<path d="M 22.819, 1398.457   L 113.733, 1290.110  "/>
<path d="M 153.134, 1243.152   L 240.117, 1139.491  "/>
<path d="M 18.005, 1393.564   L 108.078, 1286.218  "/>
<path d="M 149.504, 1236.849   L 233.278, 1137.010  "/>
<path d="M 13.623, 1388.156   L 101.991, 1282.842  "/>
<path d="M 146.401, 1229.917   L 225.913, 1135.159  "/>
<path d="M 9.696, 1382.206   L 95.450, 1280.008  "/>
<path d="M 108.070, 1264.968   L 136.655, 1230.902  "/>
<path d="M 143.955, 1222.202   L 217.890, 1134.090  "/>
<path d="M 6.310, 1375.611   L 88.367, 1277.819  "/>
<path d="M 93.363, 1271.866   L 140.894, 1215.220  "/>
<path d="M 142.343, 1213.493   L 209.034, 1134.014  "/>
<path d="M 3.521, 1368.306   L 80.689, 1276.340  "/>
<path d="M 82.103, 1274.655   L 141.685, 1203.647  "/>
<path d="M 141.785, 1203.529   L 199.124, 1135.194  "/>
<path d="M 1.397, 1360.207   L 72.344, 1275.655  "/>
<path d="M 72.456, 1275.521   L 140.863, 1193.997  "/>
<path d="M 143.032, 1191.412   L 187.408, 1138.527  "/>
<path d="M 0.199, 1351.005   L 63.074, 1276.073  "/>
<path d="M 63.803, 1275.204   L 139.049, 1185.530  "/>
<path d="M 148.861, 1173.836   L 171.111, 1147.319  "/>
<path d="M 0.269, 1340.291   L 52.535, 1278.003  "/>
<path d="M 55.948, 1273.935   L 136.435, 1178.015  "/>
<path d="M 2.926, 1326.495   L 39.410, 1283.015  "/>
<path d="M 48.682, 1271.965   L 133.232, 1171.201  "/>
<path d="M 41.937, 1269.373   L 129.509, 1165.008  "/>
<path d="M 35.665, 1266.217   L 125.312, 1159.380  "/>
<path d="M 29.863, 1262.502   L 120.646, 1154.312  "/>
<path d="M 24.499, 1258.265   L 115.541, 1149.765  "/>
<path d="M 19.557, 1253.525   L 110.016, 1145.720  "/>
<path d="M 15.043, 1248.274   L 104.061, 1142.187  "/>
<path d="M 10.979, 1242.488   L 97.657, 1139.190  "/>
<path d="M 7.396, 1236.128   L 90.771, 1136.766  "/>
<path d="M 4.345, 1229.134   L 83.354, 1134.975  "/>
<path d="M 2.018, 1221.277   L 75.212, 1134.048  "/>
<path d="M 0.478, 1212.483   L 66.284, 1134.059  "/>
<path d="M 0.106, 1202.296   L 56.187, 1135.461  "/>
<path d="M 1.652, 1189.824   L 44.173, 1139.149  "/>
<path d="M 8.731, 1170.757   L 26.625, 1149.432  "/>
<path d="M 0.001, 1417.322   L 0.000, 1417.323  "/>
<path d="M 137.535, 1417.323   L 141.732, 1415.795  "/>
<path d="M 108.329, 1417.323   L 141.732, 1405.165  "/>
<path d="M 79.124, 1417.323   L 141.732, 1394.535  "/>
<path d="M 49.918, 1417.323   L 141.732, 1383.906  "/>
<path d="M 20.713, 1417.323   L 141.732, 1373.276  "/>
<path d="M 0.000, 1414.232   L 141.732, 1362.646  "/>
<path d="M 0.000, 1403.602   L 141.732, 1352.016  "/>
<path d="M 0.000, 1392.972   L 141.732, 1341.386  "/>
<path d="M 0.000, 1382.342   L 141.732, 1330.756  "/>
<path d="M 0.000, 1371.712   L 141.732, 1320.126  "/>
<path d="M 264.092, 1275.591   L 283.465, 1268.540  "/>
<path d="M 0.000, 1361.082   L 141.732, 1309.496  "/>
<path d="M 234.886, 1275.591   L 283.465, 1257.910  "/>
<path d="M 0.000, 1350.452   L 141.732, 1298.866  "/>
<path d="M 205.681, 1275.591   L 283.465, 1247.280  "/>
<path d="M 0.000, 1339.822   L 141.732, 1288.236  "/>
<path d="M 176.475, 1275.591   L 283.465, 1236.650  "/>
<path d="M 0.000, 1329.193   L 141.732, 1277.606  "/>
<path d="M 147.270, 1275.591   L 283.465, 1226.020  "/>
<path d="M 0.000, 1318.563   L 118.064, 1275.591  "/>
<path d="M 141.732, 1266.976   L 283.465, 1215.390  "/>
<path d="M 0.000, 1307.933   L 88.859, 1275.591  "/>
<path d="M 141.732, 1256.346   L 283.465, 1204.760  "/>
<path d="M 0.000, 1297.303   L 59.653, 1275.591  "/>
<path d="M 141.732, 1245.717   L 283.465, 1194.130  "/>
<path d="M 0.000, 1286.673   L 30.448, 1275.591  "/>
<path d="M 141.732, 1235.087   L 283.465, 1183.500  "/>
<path d="M 0.000, 1276.043   L 1.242, 1275.591  "/>
<path d="M 141.732, 1224.457   L 283.465, 1172.870  "/>
<path d="M 141.732, 1213.827   L 283.465, 1162.240  "/>
<path d="M 141.732, 1203.197   L 283.465, 1151.610  "/>
<path d="M 141.732, 1192.567   L 283.465, 1140.980  "/>
<path d="M 141.732, 1181.937   L 273.827, 1133.858  "/>
<path d="M 141.732, 1171.307   L 244.621, 1133.858  "/>
<path d="M 141.732, 1160.677   L 215.416, 1133.858  "/>
<path d="M 141.732, 1150.047   L 186.210, 1133.858  "/>
<path d="M 141.732, 1139.417   L 157.005, 1133.858  "/>
<path d="M 425.198, 1275.590   L 425.197, 1275.591  "/>
<path d="M 477.898, 1407.025   L 545.483, 1350.315  "/>
<path d="M 457.575, 1413.448   L 555.337, 1331.416  "/>
<path d="M 441.561, 1416.256   L 560.883, 1316.133  "/>
<path d="M 427.754, 1417.211   L 564.222, 1302.701  "/>
<path d="M 415.459, 1416.898   L 566.048, 1290.539  "/>
<path d="M 404.272, 1415.655   L 566.767, 1279.306  "/>
<path d="M 393.938, 1413.696   L 566.632, 1268.789  "/>
<path d="M 384.290, 1411.162   L 565.812, 1258.847  "/>
<path d="M 375.211, 1408.150   L 459.100, 1337.759  "/>
<path d="M 480.533, 1319.774   L 564.422, 1249.383  "/>
<path d="M 366.730, 1404.637   L 437.321, 1345.404  "/>
<path d="M 491.844, 1299.653   L 562.435, 1240.421  "/>
<path d="M 358.800, 1400.661   L 423.487, 1346.382  "/>
<path d="M 495.210, 1286.200   L 559.897, 1231.921  "/>
<path d="M 351.246, 1396.370   L 412.196, 1345.226  "/>
<path d="M 496.032, 1274.880   L 556.982, 1223.737  "/>
<path d="M 344.045, 1391.782   L 402.555, 1342.686  "/>
<path d="M 495.205, 1264.944   L 553.715, 1215.848  "/>
<path d="M 337.417, 1386.714   L 394.049, 1339.194  "/>
<path d="M 493.242, 1255.961   L 549.875, 1208.440  "/>
<path d="M 331.079, 1381.402   L 386.510, 1334.890  "/>
<path d="M 490.313, 1247.789   L 545.744, 1201.277  "/>
<path d="M 325.024, 1375.853   L 379.734, 1329.946  "/>
<path d="M 486.621, 1240.257   L 541.331, 1194.350  "/>
<path d="M 319.513, 1369.847   L 373.799, 1324.295  "/>
<path d="M 482.087, 1233.431   L 536.373, 1187.880  "/>
<path d="M 314.265, 1363.621   L 368.552, 1318.069  "/>
<path d="M 476.866, 1227.182   L 531.153, 1181.631  "/>
<path d="M 309.303, 1357.154   L 363.983, 1311.272  "/>
<path d="M 470.966, 1221.503   L 525.646, 1175.621  "/>
<path d="M 304.867, 1350.247   L 360.242, 1303.782  "/>
<path d="M 464.239, 1216.518   L 519.614, 1170.053  "/>
<path d="M 300.709, 1343.106   L 357.282, 1295.635  "/>
<path d="M 456.730, 1212.189   L 513.304, 1164.718  "/>
<path d="M 296.858, 1335.708   L 355.251, 1286.710  "/>
<path d="M 448.293, 1208.638   L 506.687, 1159.640  "/>
<path d="M 293.573, 1327.834   L 354.384, 1276.808  "/>
<path d="M 438.692, 1206.065   L 499.503, 1155.038  "/>
<path d="M 290.628, 1319.675   L 355.106, 1265.571  "/>
<path d="M 427.501, 1204.825   L 491.979, 1150.721  "/>
<path d="M 288.057, 1311.203   L 358.325, 1252.241  "/>
<path d="M 413.814, 1205.680   L 484.082, 1146.718  "/>
<path d="M 286.070, 1302.240   L 368.731, 1232.879  "/>
<path d="M 392.940, 1212.566   L 475.601, 1143.205  "/>
<path d="M 284.644, 1292.806   L 466.558, 1140.163  "/>
<path d="M 283.784, 1282.899   L 456.950, 1137.595  "/>
<path d="M 283.603, 1272.420   L 446.662, 1135.597  "/>
<path d="M 284.268, 1261.232   L 435.529, 1134.310  "/>
<path d="M 286.029, 1249.125   L 423.299, 1133.941  "/>
<path d="M 289.286, 1235.762   L 409.574, 1134.828  "/>
<path d="M 294.724, 1220.569   L 393.668, 1137.545  "/>
<path d="M 304.193, 1201.993   L 373.730, 1143.645  "/>
<path d="M 283.465, 1417.322   L 283.465, 1417.323  "/>
<path d="M 283.465, 1275.590   L 283.465, 1275.591  "/>
<path d="M 548.579, 1417.323   L 566.929, 1406.729  "/>
<path d="M 530.167, 1417.323   L 566.929, 1396.099  "/>
<path d="M 511.756, 1417.323   L 566.929, 1385.469  "/>
<path d="M 493.344, 1417.323   L 566.929, 1374.839  "/>
<path d="M 474.933, 1417.323   L 566.929, 1364.209  "/>
<path d="M 456.521, 1417.323   L 566.929, 1353.579  "/>
<path d="M 438.110, 1417.323   L 566.929, 1342.949  "/>
<path d="M 419.698, 1417.323   L 423.184, 1415.310  "/>
<path d="M 432.708, 1409.812   L 566.929, 1332.319  "/>
<path d="M 401.287, 1417.323   L 416.445, 1408.571  "/>
<path d="M 457.859, 1384.661   L 566.929, 1321.689  "/>
<path d="M 382.875, 1417.323   L 409.706, 1401.832  "/>
<path d="M 483.010, 1359.510   L 566.929, 1311.059  "/>
<path d="M 364.463, 1417.323   L 402.967, 1395.093  "/>
<path d="M 508.160, 1334.359   L 566.929, 1300.429  "/>
<path d="M 346.052, 1417.323   L 396.228, 1388.354  "/>
<path d="M 533.311, 1309.209   L 566.929, 1289.799  "/>
<path d="M 327.640, 1417.323   L 389.489, 1381.615  "/>
<path d="M 558.462, 1284.058   L 566.929, 1279.169  "/>
<path d="M 309.229, 1417.323   L 382.750, 1374.876  "/>
<path d="M 562.459, 1271.121   L 566.929, 1268.540  "/>
<path d="M 290.817, 1417.323   L 376.010, 1368.137  "/>
<path d="M 555.720, 1264.381   L 566.929, 1257.910  "/>
<path d="M 283.465, 1410.938   L 369.271, 1361.397  "/>
<path d="M 548.981, 1257.642   L 566.929, 1247.280  "/>
<path d="M 283.465, 1400.308   L 362.532, 1354.658  "/>
<path d="M 542.242, 1250.903   L 566.929, 1236.650  "/>
<path d="M 283.465, 1389.678   L 355.793, 1347.919  "/>
<path d="M 535.503, 1244.164   L 566.929, 1226.020  "/>
<path d="M 283.465, 1379.048   L 349.054, 1341.180  "/>
<path d="M 528.763, 1237.425   L 566.929, 1215.390  "/>
<path d="M 283.465, 1368.418   L 342.315, 1334.441  "/>
<path d="M 522.024, 1230.686   L 566.929, 1204.760  "/>
<path d="M 283.465, 1357.788   L 335.576, 1327.702  "/>
<path d="M 515.285, 1223.947   L 566.929, 1194.130  "/>
<path d="M 283.465, 1347.159   L 328.837, 1320.963  "/>
<path d="M 508.546, 1217.208   L 566.929, 1183.500  "/>
<path d="M 283.465, 1336.529   L 322.098, 1314.224  "/>
<path d="M 501.807, 1210.469   L 566.929, 1172.870  "/>
<path d="M 283.465, 1325.899   L 315.359, 1307.485  "/>
<path d="M 495.068, 1203.729   L 566.929, 1162.240  "/>
<path d="M 283.465, 1315.269   L 308.619, 1300.746  "/>
<path d="M 488.329, 1196.990   L 566.929, 1151.610  "/>
<path d="M 283.465, 1304.639   L 301.880, 1294.007  "/>
<path d="M 481.590, 1190.251   L 566.929, 1140.980  "/>
<path d="M 283.465, 1294.009   L 295.141, 1287.267  "/>
<path d="M 474.851, 1183.512   L 560.853, 1133.858  "/>
<path d="M 283.465, 1283.379   L 288.402, 1280.528  "/>
<path d="M 468.112, 1176.773   L 542.442, 1133.858  "/>
<path d="M 283.465, 1272.749   L 290.188, 1268.867  "/>
<path d="M 461.372, 1170.034   L 524.030, 1133.858  "/>
<path d="M 283.465, 1262.119   L 315.339, 1243.717  "/>
<path d="M 454.633, 1163.295   L 505.619, 1133.858  "/>
<path d="M 283.465, 1251.489   L 340.489, 1218.566  "/>
<path d="M 447.894, 1156.556   L 487.207, 1133.858  "/>
<path d="M 283.465, 1240.859   L 365.640, 1193.415  "/>
<path d="M 441.155, 1149.817   L 468.796, 1133.858  "/>
<path d="M 283.465, 1230.229   L 390.791, 1168.265  "/>
<path d="M 434.416, 1143.078   L 450.384, 1133.858  "/>
<path d="M 283.465, 1219.599   L 415.941, 1143.114  "/>
<path d="M 427.677, 1136.338   L 431.972, 1133.858  "/>
<path d="M 283.465, 1208.970   L 413.561, 1133.858  "/>
<path d="M 283.465, 1198.340   L 395.149, 1133.858  "/>
<path d="M 283.465, 1187.710   L 376.738, 1133.858  "/>
<path d="M 283.465, 1177.080   L 358.326, 1133.858  "/>
<path d="M 283.465, 1166.450   L 339.915, 1133.858  "/>
<path d="M 283.465, 1155.820   L 321.503, 1133.858  "/>
<path d="M 283.465, 1145.190   L 303.091, 1133.858  "/>
<path d="M 283.465, 1134.560   L 284.680, 1133.858  "/>
<path d="M 566.930, 1417.322   L 566.929, 1417.323  "/>
<path d="M 698.417, 1417.323   L 708.662, 1408.727  "/>
<path d="M 685.749, 1417.323   L 708.662, 1398.097  "/>
<path d="M 673.081, 1417.323   L 708.662, 1387.467  "/>
<path d="M 841.991, 1275.591   L 850.394, 1268.540  "/>
<path d="M 660.412, 1417.323   L 708.662, 1376.837  "/>
<path d="M 829.322, 1275.591   L 850.394, 1257.910  "/>
<path d="M 647.744, 1417.323   L 708.662, 1366.207  "/>
<path d="M 816.654, 1275.591   L 850.394, 1247.280  "/>
<path d="M 635.076, 1417.323   L 708.662, 1355.577  "/>
<path d="M 803.986, 1275.591   L 850.394, 1236.650  "/>
<path d="M 622.408, 1417.323   L 708.662, 1344.947  "/>
<path d="M 791.318, 1275.591   L 850.394, 1226.020  "/>
<path d="M 609.739, 1417.323   L 708.662, 1334.317  "/>
<path d="M 778.649, 1275.591   L 850.394, 1215.390  "/>
<path d="M 597.071, 1417.323   L 708.662, 1323.688  "/>
<path d="M 765.981, 1275.591   L 850.394, 1204.760  "/>
<path d="M 584.403, 1417.323   L 708.662, 1313.058  "/>
<path d="M 753.313, 1275.591   L 850.394, 1194.130  "/>
<path d="M 571.735, 1417.323   L 708.662, 1302.428  "/>
<path d="M 740.645, 1275.591   L 850.394, 1183.500  "/>
<path d="M 566.929, 1410.725   L 708.662, 1291.798  "/>
<path d="M 727.976, 1275.591   L 850.394, 1172.870  "/>
<path d="M 566.929, 1400.095   L 708.662, 1281.168  "/>
<path d="M 715.308, 1275.591   L 850.394, 1162.240  "/>
<path d="M 566.929, 1389.465   L 702.640, 1275.591  "/>
<path d="M 708.662, 1270.538   L 850.394, 1151.610  "/>
<path d="M 566.929, 1378.836   L 689.972, 1275.591  "/>
<path d="M 708.662, 1259.908   L 850.394, 1140.980  "/>
<path d="M 566.929, 1368.206   L 677.303, 1275.591  "/>
<path d="M 708.662, 1249.278   L 846.213, 1133.858  "/>
<path d="M 566.929, 1357.576   L 664.635, 1275.591  "/>
<path d="M 708.662, 1238.648   L 833.545, 1133.858  "/>
<path d="M 566.929, 1346.946   L 651.967, 1275.591  "/>
<path d="M 708.662, 1228.018   L 820.877, 1133.858  "/>
<path d="M 566.929, 1336.316   L 639.299, 1275.591  "/>
<path d="M 708.662, 1217.388   L 808.209, 1133.858  "/>
<path d="M 566.929, 1325.686   L 626.630, 1275.591  "/>
<path d="M 708.662, 1206.758   L 795.540, 1133.858  "/>
<path d="M 566.929, 1315.056   L 613.962, 1275.591  "/>
<path d="M 708.662, 1196.128   L 782.872, 1133.858  "/>
<path d="M 566.929, 1304.426   L 601.294, 1275.591  "/>
<path d="M 708.662, 1185.499   L 770.204, 1133.858  "/>
<path d="M 566.929, 1293.796   L 588.626, 1275.591  "/>
<path d="M 708.662, 1174.869   L 757.536, 1133.858  "/>
<path d="M 566.929, 1283.166   L 575.957, 1275.591  "/>
<path d="M 708.662, 1164.239   L 744.867, 1133.858  "/>
<path d="M 708.662, 1153.609   L 732.199, 1133.858  "/>
<path d="M 708.662, 1142.979   L 719.531, 1133.858  "/>
<path d="M 708.662, 1275.590   L 708.662, 1275.591  "/>
<path d="M 794.728, 1388.029   L 834.337, 1340.825  "/>
<path d="M 775.326, 1400.522   L 843.271, 1319.548  "/>
<path d="M 760.729, 1407.288   L 847.399, 1303.998  "/>
<path d="M 748.195, 1411.595   L 849.464, 1290.907  "/>
<path d="M 736.962, 1414.352   L 850.229, 1279.366  "/>
<path d="M 726.622, 1416.046   L 850.101, 1268.888  "/>
<path d="M 716.933, 1416.962   L 849.321, 1259.188  "/>
<path d="M 707.744, 1417.283   L 848.042, 1250.083  "/>
<path d="M 699.140, 1416.907   L 846.178, 1241.674  "/>
<path d="M 690.919, 1416.074   L 843.930, 1233.723  "/>
<path d="M 682.961, 1414.928   L 754.707, 1329.425  "/>
<path d="M 769.674, 1311.588   L 841.420, 1226.085  "/>
<path d="M 675.441, 1413.261   L 736.245, 1340.797  "/>
<path d="M 777.667, 1291.432   L 838.472, 1218.968  "/>
<path d="M 668.172, 1411.293   L 724.054, 1344.696  "/>
<path d="M 779.390, 1278.749   L 835.272, 1212.152  "/>
<path d="M 661.119, 1409.069   L 713.847, 1346.230  "/>
<path d="M 779.129, 1268.431   L 831.857, 1205.592  "/>
<path d="M 654.442, 1406.396   L 704.876, 1346.292  "/>
<path d="M 777.631, 1259.586   L 828.065, 1199.481  "/>
<path d="M 647.882, 1403.585   L 696.685, 1345.424  "/>
<path d="M 775.354, 1251.670   L 824.157, 1193.508  "/>
<path d="M 641.674, 1400.353   L 689.216, 1343.694  "/>
<path d="M 772.354, 1244.615   L 819.896, 1187.956  "/>
<path d="M 635.614, 1396.945   L 682.302, 1341.304  "/>
<path d="M 768.799, 1238.221   L 815.488, 1182.580  "/>
<path d="M 629.802, 1393.242   L 675.871, 1338.338  "/>
<path d="M 764.762, 1232.403   L 810.832, 1177.499  "/>
<path d="M 624.214, 1389.271   L 669.891, 1334.836  "/>
<path d="M 760.274, 1227.121   L 805.951, 1172.686  "/>
<path d="M 618.788, 1385.108   L 664.340, 1330.821  "/>
<path d="M 755.357, 1222.352   L 800.908, 1168.065  "/>
<path d="M 613.659, 1380.591   L 659.210, 1326.304  "/>
<path d="M 750.018, 1218.085   L 795.569, 1163.798  "/>
<path d="M 608.616, 1375.970   L 654.504, 1321.283  "/>
<path d="M 744.256, 1214.321   L 790.143, 1159.634  "/>
<path d="M 603.947, 1370.905   L 650.269, 1315.700  "/>
<path d="M 738.022, 1211.120   L 784.344, 1155.916  "/>
<path d="M 599.358, 1365.743   L 646.518, 1309.541  "/>
<path d="M 731.305, 1208.496   L 778.464, 1152.293  "/>
<path d="M 595.098, 1360.191   L 643.285, 1302.764  "/>
<path d="M 724.069, 1206.489   L 772.256, 1149.062  "/>
<path d="M 591.004, 1354.440   L 640.638, 1295.289  "/>
<path d="M 716.248, 1205.180   L 765.882, 1146.028  "/>
<path d="M 587.154, 1348.398   L 638.743, 1286.917  "/>
<path d="M 707.674, 1204.768   L 759.263, 1143.287  "/>
<path d="M 583.600, 1342.004   L 637.871, 1277.326  "/>
<path d="M 698.078, 1205.574   L 752.349, 1140.896  "/>
<path d="M 580.188, 1335.440   L 638.526, 1265.916  "/>
<path d="M 686.955, 1208.200   L 745.292, 1138.676  "/>
<path d="M 577.240, 1328.323   L 642.306, 1250.781  "/>
<path d="M 672.706, 1214.552   L 737.772, 1137.009  "/>
<path d="M 574.498, 1320.962   L 730.046, 1135.587  "/>
<path d="M 572.062, 1313.235   L 722.014, 1134.529  "/>
<path d="M 570.126, 1304.911   L 713.480, 1134.069  "/>
<path d="M 568.550, 1296.160   L 704.588, 1134.036  "/>
<path d="M 567.422, 1286.875   L 695.248, 1134.537  "/>
<path d="M 566.981, 1276.771   L 685.221, 1135.858  "/>
<path d="M 567.362, 1265.687   L 674.371, 1138.157  "/>
<path d="M 568.766, 1253.383   L 662.499, 1141.677  "/>
<path d="M 571.675, 1239.287   L 649.122, 1146.989  "/>
<path d="M 577.922, 1221.211   L 632.405, 1156.281  "/>
<path d="M 223.757, 1132.933   L 267.589, 1107.626  "/>
<path d="M 204.620, 1133.352   L 277.520, 1091.263  "/>
<path d="M 191.189, 1130.476   L 281.746, 1078.193  "/>
<path d="M 180.425, 1126.061   L 283.304, 1066.664  "/>
<path d="M 171.417, 1120.632   L 283.107, 1056.148  "/>
<path d="M 163.864, 1114.363   L 281.454, 1046.472  "/>
<path d="M 157.458, 1107.431   L 278.654, 1037.459  "/>
<path d="M 152.146, 1099.868   L 274.760, 1029.077  "/>
<path d="M 75.188, 1133.670   L 129.913, 1102.074  "/>
<path d="M 147.862, 1091.711   L 269.838, 1021.289  "/>
<path d="M 58.383, 1132.742   L 137.513, 1087.057  "/>
<path d="M 144.652, 1082.935   L 263.843, 1014.120  "/>
<path d="M 45.937, 1129.298   L 140.753, 1074.556  "/>
<path d="M 142.573, 1073.505   L 256.716, 1007.605  "/>
<path d="M 35.769, 1124.539   L 141.716, 1063.370  "/>
<path d="M 141.748, 1063.352   L 248.335, 1001.814  "/>
<path d="M 27.297, 1118.800   L 140.982, 1053.164  "/>
<path d="M 142.606, 1052.226   L 238.271, 996.994  "/>
<path d="M 20.064, 1112.346   L 139.009, 1043.673  "/>
<path d="M 145.667, 1039.829   L 226.004, 993.447  "/>
<path d="M 234.319, 988.646   L 260.096, 973.764  "/>
<path d="M 14.019, 1105.207   L 135.849, 1034.868  "/>
<path d="M 152.808, 1025.076   L 209.657, 992.255  "/>
<path d="M 210.071, 992.016   L 275.139, 954.449  "/>
<path d="M 8.999, 1097.475   L 131.662, 1026.655  "/>
<path d="M 195.264, 989.935   L 280.740, 940.585  "/>
<path d="M 5.057, 1089.121   L 126.399, 1019.064  "/>
<path d="M 183.760, 985.947   L 283.038, 928.628  "/>
<path d="M 2.156, 1080.166   L 120.094, 1012.074  "/>
<path d="M 174.277, 980.792   L 283.315, 917.838  "/>
<path d="M 0.448, 1070.522   L 112.596, 1005.773  "/>
<path d="M 166.236, 974.804   L 282.150, 907.881  "/>
<path d="M 0.127, 1060.077   L 103.711, 1000.273  "/>
<path d="M 159.473, 968.079   L 279.708, 898.661  "/>
<path d="M 1.531, 1048.637   L 93.101, 995.769  "/>
<path d="M 153.796, 960.726   L 276.179, 890.069  "/>
<path d="M 5.543, 1035.691   L 79.884, 992.770  "/>
<path d="M 82.772, 991.102   L 125.398, 966.492  "/>
<path d="M 149.180, 952.762   L 271.589, 882.089  "/>
<path d="M 14.860, 1019.682   L 61.361, 992.834  "/>
<path d="M 63.358, 991.681   L 135.607, 949.968  "/>
<path d="M 145.597, 944.200   L 265.966, 874.705  "/>
<path d="M 49.830, 988.862   L 139.929, 936.843  "/>
<path d="M 143.126, 934.997   L 259.231, 867.964  "/>
<path d="M 38.996, 984.487   L 141.557, 925.273  "/>
<path d="M 141.899, 925.076   L 251.253, 861.940  "/>
<path d="M 29.932, 979.090   L 141.415, 914.725  "/>
<path d="M 142.101, 914.329   L 241.844, 856.742  "/>
<path d="M 22.355, 972.835   L 139.787, 905.035  "/>
<path d="M 144.301, 902.429   L 230.439, 852.697  "/>
<path d="M 15.903, 965.930   L 137.033, 895.995  "/>
<path d="M 149.758, 888.649   L 215.777, 850.533  "/>
<path d="M 10.569, 958.380   L 133.161, 887.601  "/>
<path d="M 163.909, 869.848   L 192.419, 853.388  "/>
<path d="M 6.241, 950.248   L 128.283, 879.787  "/>
<path d="M 3.008, 941.485   L 122.310, 872.606  "/>
<path d="M 0.881, 932.083   L 115.231, 866.063  "/>
<path d="M 0.030, 921.944   L 106.877, 860.256  "/>
<path d="M 0.826, 910.855   L 96.875, 855.401  "/>
<path d="M 3.807, 898.504   L 84.689, 851.807  "/>
<path d="M 10.740, 883.871   L 68.549, 850.495  "/>
<path d="M 0.001, 1133.858   L 0.000, 1133.858  "/>
<path d="M 139.933, 1133.858   L 141.732, 1132.349  "/>
<path d="M 127.265, 1133.858   L 141.732, 1121.719  "/>
<path d="M 114.597, 1133.858   L 141.732, 1111.089  "/>
<path d="M 101.929, 1133.858   L 141.732, 1100.459  "/>
<path d="M 270.839, 992.126   L 283.465, 981.532  "/>
<path d="M 89.260, 1133.858   L 141.732, 1089.829  "/>
<path d="M 258.170, 992.126   L 283.465, 970.902  "/>
<path d="M 76.592, 1133.858   L 141.732, 1079.199  "/>
<path d="M 245.502, 992.126   L 283.465, 960.272  "/>
<path d="M 63.924, 1133.858   L 141.732, 1068.569  "/>
<path d="M 232.834, 992.126   L 283.465, 949.642  "/>
<path d="M 51.256, 1133.858   L 141.732, 1057.939  "/>
<path d="M 220.166, 992.126   L 283.465, 939.012  "/>
<path d="M 38.587, 1133.858   L 141.732, 1047.310  "/>
<path d="M 207.497, 992.126   L 283.465, 928.382  "/>
<path d="M 25.919, 1133.858   L 141.732, 1036.680  "/>
<path d="M 194.829, 992.126   L 283.465, 917.752  "/>
<path d="M 13.251, 1133.858   L 141.732, 1026.050  "/>
<path d="M 182.161, 992.126   L 283.465, 907.122  "/>
<path d="M 0.583, 1133.858   L 141.732, 1015.420  "/>
<path d="M 169.493, 992.126   L 283.465, 896.492  "/>
<path d="M 0.000, 1123.717   L 141.732, 1004.790  "/>
<path d="M 156.824, 992.126   L 283.465, 885.862  "/>
<path d="M 0.000, 1113.087   L 141.732, 994.160  "/>
<path d="M 144.156, 992.126   L 283.465, 875.232  "/>
<path d="M 0.000, 1102.458   L 131.488, 992.126  "/>
<path d="M 141.732, 983.530   L 283.465, 864.602  "/>
<path d="M 0.000, 1091.828   L 118.820, 992.126  "/>
<path d="M 141.732, 972.900   L 283.465, 853.973  "/>
<path d="M 0.000, 1081.198   L 106.151, 992.126  "/>
<path d="M 141.732, 962.270   L 275.061, 850.394  "/>
<path d="M 0.000, 1070.568   L 93.483, 992.126  "/>
<path d="M 141.732, 951.640   L 262.393, 850.394  "/>
<path d="M 0.000, 1059.938   L 80.815, 992.126  "/>
<path d="M 141.732, 941.010   L 249.725, 850.394  "/>
<path d="M 0.000, 1049.308   L 68.147, 992.126  "/>
<path d="M 141.732, 930.380   L 237.057, 850.394  "/>
<path d="M 0.000, 1038.678   L 55.478, 992.126  "/>
<path d="M 141.732, 919.750   L 224.388, 850.394  "/>
<path d="M 0.000, 1028.048   L 42.810, 992.126  "/>
<path d="M 141.732, 909.121   L 211.720, 850.394  "/>
<path d="M 0.000, 1017.418   L 30.142, 992.126  "/>
<path d="M 141.732, 898.491   L 199.052, 850.394  "/>
<path d="M 0.000, 1006.788   L 17.474, 992.126  "/>
<path d="M 141.732, 887.861   L 186.384, 850.394  "/>
<path d="M 0.000, 996.158   L 4.805, 992.126  "/>
<path d="M 141.732, 877.231   L 173.715, 850.394  "/>
<path d="M 141.732, 866.601   L 161.047, 850.394  "/>
<path d="M 141.732, 855.971   L 148.379, 850.394  "/>
<path d="M 283.465, 1133.858   L 283.465, 1133.858  "/>
<path d="M 557.291, 1133.858   L 564.357, 1131.287  "/>
<path d="M 528.086, 1133.858   L 556.564, 1123.493  "/>
<path d="M 498.880, 1133.858   L 548.771, 1115.700  "/>
<path d="M 469.675, 1133.858   L 540.977, 1107.906  "/>
<path d="M 440.470, 1133.858   L 533.184, 1100.113  "/>
<path d="M 411.264, 1133.858   L 525.391, 1092.320  "/>
<path d="M 382.059, 1133.858   L 517.597, 1084.526  "/>
<path d="M 352.853, 1133.858   L 509.804, 1076.733  "/>
<path d="M 323.648, 1133.858   L 502.010, 1068.940  "/>
<path d="M 294.442, 1133.858   L 494.217, 1061.146  "/>
<path d="M 293.896, 1123.427   L 486.424, 1053.353  "/>
<path d="M 310.609, 1106.714   L 478.630, 1045.560  "/>
<path d="M 327.321, 1090.002   L 470.837, 1037.766  "/>
<path d="M 344.034, 1073.289   L 463.044, 1029.973  "/>
<path d="M 360.747, 1056.576   L 455.250, 1022.179  "/>
<path d="M 377.460, 1039.863   L 447.457, 1014.386  "/>
<path d="M 394.173, 1023.150   L 439.664, 1006.593  "/>
<path d="M 410.886, 1006.437   L 431.870, 998.799  "/>
<path d="M 424.077, 991.006   L 427.599, 989.724  "/>
<path d="M 416.283, 983.213   L 444.312, 973.011  "/>
<path d="M 408.490, 975.419   L 461.025, 956.298  "/>
<path d="M 400.697, 967.626   L 477.738, 939.585  "/>
<path d="M 392.903, 959.832   L 494.451, 922.872  "/>
<path d="M 385.110, 952.039   L 511.164, 906.159  "/>
<path d="M 377.317, 944.246   L 527.877, 889.446  "/>
<path d="M 369.523, 936.452   L 544.590, 872.733  "/>
<path d="M 361.730, 928.659   L 561.303, 856.020  "/>
<path d="M 353.936, 920.866   L 547.556, 850.394  "/>
<path d="M 346.143, 913.072   L 518.351, 850.394  "/>
<path d="M 338.350, 905.279   L 489.145, 850.394  "/>
<path d="M 330.556, 897.486   L 459.940, 850.394  "/>
<path d="M 322.763, 889.692   L 430.734, 850.394  "/>
<path d="M 314.970, 881.899   L 401.529, 850.394  "/>
<path d="M 307.176, 874.105   L 372.323, 850.394  "/>
<path d="M 299.383, 866.312   L 343.118, 850.394  "/>
<path d="M 291.590, 858.519   L 313.912, 850.394  "/>
<path d="M 283.796, 850.725   L 284.707, 850.394  "/>
<path d="M 283.465, 1133.858   L 283.465, 1133.858  "/>
<path d="M 413.561, 1133.858   L 425.197, 1127.140  "/>
<path d="M 395.149, 1133.858   L 425.197, 1116.510  "/>
<path d="M 376.738, 1133.858   L 425.197, 1105.881  "/>
<path d="M 358.326, 1133.858   L 425.197, 1095.251  "/>
<path d="M 339.915, 1133.858   L 425.197, 1084.621  "/>
<path d="M 321.503, 1133.858   L 425.197, 1073.991  "/>
<path d="M 303.091, 1133.858   L 425.197, 1063.361  "/>
<path d="M 548.579, 992.126   L 566.929, 981.532  "/>
<path d="M 284.680, 1133.858   L 425.197, 1052.731  "/>
<path d="M 530.167, 992.126   L 566.929, 970.902  "/>
<path d="M 283.465, 1123.930   L 425.197, 1042.101  "/>
<path d="M 511.756, 992.126   L 566.929, 960.272  "/>
<path d="M 283.465, 1113.300   L 425.197, 1031.471  "/>
<path d="M 493.344, 992.126   L 566.929, 949.642  "/>
<path d="M 283.465, 1102.670   L 425.197, 1020.841  "/>
<path d="M 474.933, 992.126   L 566.929, 939.012  "/>
<path d="M 283.465, 1092.040   L 425.197, 1010.211  "/>
<path d="M 456.521, 992.126   L 566.929, 928.382  "/>
<path d="M 283.465, 1081.410   L 425.197, 999.581  "/>
<path d="M 438.110, 992.126   L 566.929, 917.752  "/>
<path d="M 283.465, 1070.781   L 419.698, 992.126  "/>
<path d="M 425.197, 988.951   L 566.929, 907.122  "/>
<path d="M 283.465, 1060.151   L 401.287, 992.126  "/>
<path d="M 425.197, 978.321   L 566.929, 896.492  "/>
<path d="M 283.465, 1049.521   L 382.875, 992.126  "/>
<path d="M 425.197, 967.692   L 566.929, 885.862  "/>
<path d="M 283.465, 1038.891   L 364.463, 992.126  "/>
<path d="M 425.197, 957.062   L 566.929, 875.232  "/>
<path d="M 283.465, 1028.261   L 346.052, 992.126  "/>
<path d="M 425.197, 946.432   L 566.929, 864.602  "/>
<path d="M 283.465, 1017.631   L 327.640, 992.126  "/>
<path d="M 425.197, 935.802   L 566.929, 853.973  "/>
<path d="M 283.465, 1007.001   L 309.229, 992.126  "/>
<path d="M 425.197, 925.172   L 554.716, 850.394  "/>
<path d="M 283.465, 996.371   L 290.817, 992.126  "/>
<path d="M 425.197, 914.542   L 536.305, 850.394  "/>
<path d="M 425.197, 903.912   L 517.893, 850.394  "/>
<path d="M 425.197, 893.282   L 499.482, 850.394  "/>
<path d="M 425.197, 882.652   L 481.070, 850.394  "/>
<path d="M 425.197, 872.022   L 462.658, 850.394  "/>
<path d="M 425.197, 861.392   L 444.247, 850.394  "/>
<path d="M 425.197, 850.762   L 425.835, 850.394  "/>
<path d="M 566.930, 1133.858   L 566.929, 1133.858  "/>
<path d="M 706.863, 1133.858   L 708.662, 1132.349  "/>
<path d="M 694.194, 1133.858   L 708.662, 1121.719  "/>
<path d="M 681.526, 1133.858   L 708.662, 1111.089  "/>
<path d="M 668.858, 1133.858   L 708.662, 1100.459  "/>
<path d="M 837.768, 992.126   L 850.394, 981.532  "/>
<path d="M 656.190, 1133.858   L 708.662, 1089.829  "/>
<path d="M 825.100, 992.126   L 850.394, 970.902  "/>
<path d="M 643.521, 1133.858   L 708.662, 1079.199  "/>
<path d="M 812.431, 992.126   L 850.394, 960.272  "/>
<path d="M 630.853, 1133.858   L 708.662, 1068.569  "/>
<path d="M 799.763, 992.126   L 850.394, 949.642  "/>
<path d="M 618.185, 1133.858   L 708.662, 1057.939  "/>
<path d="M 787.095, 992.126   L 850.394, 939.012  "/>
<path d="M 605.517, 1133.858   L 708.662, 1047.310  "/>
<path d="M 774.427, 992.126   L 850.394, 928.382  "/>
<path d="M 592.848, 1133.858   L 708.662, 1036.680  "/>
<path d="M 761.758, 992.126   L 850.394, 917.752  "/>
<path d="M 580.180, 1133.858   L 708.662, 1026.050  "/>
<path d="M 749.090, 992.126   L 850.394, 907.122  "/>
<path d="M 567.512, 1133.858   L 708.662, 1015.420  "/>
<path d="M 736.422, 992.126   L 850.394, 896.492  "/>
<path d="M 566.929, 1123.717   L 708.662, 1004.790  "/>
<path d="M 723.754, 992.126   L 850.394, 885.862  "/>
<path d="M 566.929, 1113.087   L 708.662, 994.160  "/>
<path d="M 711.085, 992.126   L 850.394, 875.232  "/>
<path d="M 566.929, 1102.458   L 698.417, 992.126  "/>
<path d="M 708.662, 983.530   L 850.394, 864.602  "/>
<path d="M 566.929, 1091.828   L 685.749, 992.126  "/>
<path d="M 708.662, 972.900   L 850.394, 853.973  "/>
<path d="M 566.929, 1081.198   L 673.081, 992.126  "/>
<path d="M 708.662, 962.270   L 841.991, 850.394  "/>
<path d="M 566.929, 1070.568   L 660.412, 992.126  "/>
<path d="M 708.662, 951.640   L 829.322, 850.394  "/>
<path d="M 566.929, 1059.938   L 647.744, 992.126  "/>
<path d="M 708.662, 941.010   L 816.654, 850.394  "/>
<path d="M 566.929, 1049.308   L 635.076, 992.126  "/>
<path d="M 708.662, 930.380   L 803.986, 850.394  "/>
<path d="M 566.929, 1038.678   L 622.408, 992.126  "/>
<path d="M 708.662, 919.750   L 791.318, 850.394  "/>
<path d="M 566.929, 1028.048   L 609.739, 992.126  "/>
<path d="M 708.662, 909.121   L 778.649, 850.394  "/>
<path d="M 566.929, 1017.418   L 597.071, 992.126  "/>
<path d="M 708.662, 898.491   L 765.981, 850.394  "/>
<path d="M 566.929, 1006.788   L 584.403, 992.126  "/>
<path d="M 708.662, 887.861   L 753.313, 850.394  "/>
<path d="M 566.929, 996.158   L 571.735, 992.126  "/>
<path d="M 708.662, 877.231   L 740.645, 850.394  "/>
<path d="M 708.662, 866.601   L 727.976, 850.394  "/>
<path d="M 708.662, 855.971   L 715.308, 850.394  "/>
<path d="M 798.748, 1131.166   L 843.329, 1093.759  "/>
<path d="M 783.056, 1133.704   L 848.553, 1078.746  "/>
<path d="M 770.908, 1133.267   L 850.232, 1066.707  "/>
<path d="M 760.624, 1131.267   L 850.047, 1056.232  "/>
<path d="M 751.722, 1128.107   L 848.481, 1046.916  "/>
<path d="M 743.764, 1124.154   L 845.970, 1038.393  "/>
<path d="M 736.751, 1119.409   L 842.515, 1030.662  "/>
<path d="M 730.460, 1114.058   L 838.338, 1023.538  "/>
<path d="M 724.897, 1108.096   L 833.433, 1017.024  "/>
<path d="M 720.106, 1101.486   L 827.755, 1011.158  "/>
<path d="M 716.006, 1094.296   L 821.386, 1005.872  "/>
<path d="M 660.831, 1129.964   L 699.749, 1097.308  "/>
<path d="M 712.689, 1086.450   L 814.235, 1001.243  "/>
<path d="M 643.836, 1133.595   L 706.276, 1081.201  "/>
<path d="M 710.299, 1077.826   L 806.157, 997.391  "/>
<path d="M 631.235, 1133.538   L 708.409, 1068.782  "/>
<path d="M 708.896, 1068.372   L 797.091, 994.368  "/>
<path d="M 805.920, 986.960   L 839.647, 958.660  "/>
<path d="M 620.726, 1131.726   L 708.449, 1058.118  "/>
<path d="M 708.891, 1057.747   L 786.628, 992.517  "/>
<path d="M 787.735, 991.589   L 847.363, 941.555  "/>
<path d="M 611.584, 1128.767   L 707.123, 1048.601  "/>
<path d="M 710.904, 1045.428   L 774.147, 992.361  "/>
<path d="M 774.679, 991.914   L 849.951, 928.754  "/>
<path d="M 603.474, 1124.943   L 704.765, 1039.950  "/>
<path d="M 717.089, 1029.608   L 757.493, 995.705  "/>
<path d="M 763.915, 990.316   L 850.246, 917.876  "/>
<path d="M 596.263, 1120.363   L 701.507, 1032.053  "/>
<path d="M 754.549, 987.545   L 849.144, 908.171  "/>
<path d="M 589.866, 1115.101   L 697.435, 1024.840  "/>
<path d="M 746.342, 983.802   L 846.882, 899.439  "/>
<path d="M 584.162, 1109.257   L 692.671, 1018.208  "/>
<path d="M 738.964, 979.363   L 843.792, 891.402  "/>
<path d="M 579.203, 1102.788   L 687.161, 1012.201  "/>
<path d="M 732.479, 974.175   L 839.809, 884.114  "/>
<path d="M 574.998, 1095.687   L 680.898, 1006.826  "/>
<path d="M 726.695, 968.398   L 835.124, 877.415  "/>
<path d="M 571.514, 1087.981   L 673.914, 1002.057  "/>
<path d="M 721.589, 962.053   L 829.761, 871.285  "/>
<path d="M 568.940, 1079.511   L 666.019, 998.051  "/>
<path d="M 717.290, 955.030   L 823.592, 865.832  "/>
<path d="M 567.338, 1070.225   L 657.153, 994.861  "/>
<path d="M 669.274, 984.691   L 694.796, 963.275  "/>
<path d="M 713.721, 947.395   L 816.693, 860.991  "/>
<path d="M 567.068, 1059.822   L 646.955, 992.789  "/>
<path d="M 648.827, 991.217   L 704.774, 944.272  "/>
<path d="M 710.961, 939.081   L 808.984, 856.829  "/>
<path d="M 568.627, 1047.883   L 634.927, 992.251  "/>
<path d="M 635.210, 992.013   L 707.923, 931.000  "/>
<path d="M 709.253, 929.884   L 800.223, 853.551  "/>
<path d="M 573.528, 1033.141   L 619.557, 994.518  "/>
<path d="M 624.067, 990.734   L 708.598, 919.804  "/>
<path d="M 708.730, 919.693   L 790.279, 851.266  "/>
<path d="M 614.484, 988.145   L 707.712, 909.918  "/>
<path d="M 709.939, 908.049   L 778.601, 850.434  "/>
<path d="M 606.080, 984.567   L 705.648, 901.019  "/>
<path d="M 714.280, 893.776   L 763.792, 852.231  "/>
<path d="M 598.585, 980.226   L 702.674, 892.885  "/>
<path d="M 591.885, 975.218   L 698.906, 885.417  "/>
<path d="M 585.998, 969.528   L 694.325, 878.631  "/>
<path d="M 580.790, 963.268   L 689.064, 872.415  "/>
<path d="M 576.282, 956.421   L 683.104, 866.786  "/>
<path d="M 572.603, 948.878   L 676.314, 861.854  "/>
<path d="M 569.688, 940.694   L 668.760, 857.562  "/>
<path d="M 567.758, 931.683   L 660.222, 854.097  "/>
<path d="M 566.950, 921.732   L 650.562, 851.573  "/>
<path d="M 567.819, 910.372   L 639.224, 850.456  "/>
<path d="M 571.279, 896.839   L 625.296, 851.513  "/>
<path d="M 582.994, 876.379   L 603.113, 859.497  "/>
<path d="M 0.001, 850.393   L 0.000, 850.394  "/>
<path d="M 264.092, 850.394   L 278.295, 845.224  "/>
<path d="M 234.886, 850.394   L 270.502, 837.431  "/>
<path d="M 205.681, 850.394   L 262.708, 829.638  "/>
<path d="M 176.475, 850.394   L 254.915, 821.844  "/>
<path d="M 147.270, 850.394   L 247.122, 814.051  "/>
<path d="M 118.064, 850.394   L 239.328, 806.257  "/>
<path d="M 88.859, 850.394   L 231.535, 798.464  "/>
<path d="M 59.653, 850.394   L 223.741, 790.671  "/>
<path d="M 30.448, 850.394   L 215.948, 782.877  "/>
<path d="M 1.242, 850.394   L 208.155, 775.084  "/>
<path d="M 16.002, 834.392   L 200.361, 767.291  "/>
<path d="M 32.715, 817.679   L 192.568, 759.497  "/>
<path d="M 49.428, 800.966   L 184.775, 751.704  "/>
<path d="M 66.141, 784.253   L 176.981, 743.910  "/>
<path d="M 82.854, 767.540   L 169.188, 736.117  "/>
<path d="M 99.567, 750.827   L 161.394, 728.324  "/>
<path d="M 116.280, 734.114   L 153.601, 720.530  "/>
<path d="M 132.993, 717.401   L 145.808, 712.737  "/>
<path d="M 138.014, 704.944   L 149.705, 700.688  "/>
<path d="M 130.221, 697.150   L 166.418, 683.975  "/>
<path d="M 122.428, 689.357   L 183.131, 667.263  "/>
<path d="M 114.634, 681.563   L 199.844, 650.550  "/>
<path d="M 106.841, 673.770   L 216.557, 633.837  "/>
<path d="M 99.048, 665.977   L 233.270, 617.124  "/>
<path d="M 91.254, 658.183   L 249.983, 600.411  "/>
<path d="M 83.461, 650.390   L 266.696, 583.698  "/>
<path d="M 75.667, 642.597   L 283.409, 566.985  "/>
<path d="M 67.874, 634.803   L 254.356, 566.929  "/>
<path d="M 60.081, 627.010   L 225.151, 566.929  "/>
<path d="M 52.287, 619.217   L 195.946, 566.929  "/>
<path d="M 44.494, 611.423   L 166.740, 566.929  "/>
<path d="M 36.701, 603.630   L 137.535, 566.929  "/>
<path d="M 28.907, 595.836   L 108.329, 566.929  "/>
<path d="M 21.114, 588.043   L 79.124, 566.929  "/>
<path d="M 13.320, 580.250   L 49.918, 566.929  "/>
<path d="M 5.527, 572.456   L 20.713, 566.929  "/>
<path d="M 0.001, 850.393   L 0.000, 850.394  "/>
<path d="M 70.867, 779.527   L 70.866, 779.528  "/>
<path d="M 275.061, 850.394   L 283.465, 843.343  "/>
<path d="M 262.393, 850.394   L 283.465, 832.713  "/>
<path d="M 249.725, 850.394   L 283.465, 822.083  "/>
<path d="M 237.057, 850.394   L 283.465, 811.453  "/>
<path d="M 224.388, 850.394   L 283.465, 800.823  "/>
<path d="M 211.720, 850.394   L 283.465, 790.193  "/>
<path d="M 199.052, 850.394   L 283.465, 779.563  "/>
<path d="M 186.384, 850.394   L 283.465, 768.933  "/>
<path d="M 173.715, 850.394   L 283.465, 758.303  "/>
<path d="M 161.047, 850.394   L 283.465, 747.673  "/>
<path d="M 148.379, 850.394   L 283.465, 737.043  "/>
<path d="M 135.711, 850.394   L 283.465, 726.413  "/>
<path d="M 123.042, 850.394   L 207.497, 779.528  "/>
<path d="M 212.598, 775.247   L 283.465, 715.784  "/>
<path d="M 110.374, 850.394   L 194.829, 779.528  "/>
<path d="M 212.598, 764.617   L 283.465, 705.154  "/>
<path d="M 97.706, 850.394   L 182.161, 779.528  "/>
<path d="M 212.598, 753.987   L 283.465, 694.524  "/>
<path d="M 85.038, 850.394   L 169.493, 779.528  "/>
<path d="M 212.598, 743.358   L 283.465, 683.894  "/>
<path d="M 72.369, 850.394   L 156.824, 779.528  "/>
<path d="M 212.598, 732.728   L 283.465, 673.264  "/>
<path d="M 59.701, 850.394   L 144.156, 779.528  "/>
<path d="M 212.598, 722.098   L 283.465, 662.634  "/>
<path d="M 47.033, 850.394   L 131.488, 779.528  "/>
<path d="M 212.598, 711.468   L 283.465, 652.004  "/>
<path d="M 34.365, 850.394   L 118.820, 779.528  "/>
<path d="M 212.598, 700.838   L 283.465, 641.374  "/>
<path d="M 21.696, 850.394   L 106.151, 779.528  "/>
<path d="M 212.598, 690.208   L 283.465, 630.744  "/>
<path d="M 9.028, 850.394   L 93.483, 779.528  "/>
<path d="M 212.598, 679.578   L 283.465, 620.114  "/>
<path d="M 0.000, 847.339   L 80.815, 779.528  "/>
<path d="M 212.598, 668.948   L 283.465, 609.484  "/>
<path d="M 0.000, 836.709   L 70.866, 777.246  "/>
<path d="M 212.598, 658.318   L 283.465, 598.854  "/>
<path d="M 0.000, 826.080   L 70.866, 766.616  "/>
<path d="M 212.598, 647.688   L 283.465, 588.225  "/>
<path d="M 0.000, 815.450   L 70.866, 755.986  "/>
<path d="M 211.720, 637.795   L 283.465, 577.595  "/>
<path d="M 0.000, 804.820   L 70.866, 745.356  "/>
<path d="M 199.052, 637.795   L 283.465, 566.965  "/>
<path d="M 0.000, 794.190   L 70.866, 734.726  "/>
<path d="M 186.384, 637.795   L 270.839, 566.929  "/>
<path d="M 0.000, 783.560   L 70.866, 724.096  "/>
<path d="M 173.715, 637.795   L 258.170, 566.929  "/>
<path d="M 0.000, 772.930   L 70.866, 713.466  "/>
<path d="M 161.047, 637.795   L 245.502, 566.929  "/>
<path d="M 0.000, 762.300   L 70.866, 702.836  "/>
<path d="M 148.379, 637.795   L 232.834, 566.929  "/>
<path d="M 0.000, 751.670   L 70.866, 692.206  "/>
<path d="M 135.711, 637.795   L 220.166, 566.929  "/>
<path d="M 0.000, 741.040   L 70.866, 681.576  "/>
<path d="M 123.042, 637.795   L 207.497, 566.929  "/>
<path d="M 0.000, 730.410   L 70.866, 670.946  "/>
<path d="M 110.374, 637.795   L 194.829, 566.929  "/>
<path d="M 0.000, 719.780   L 70.866, 660.317  "/>
<path d="M 97.706, 637.795   L 182.161, 566.929  "/>
<path d="M 0.000, 709.150   L 70.866, 649.687  "/>
<path d="M 85.038, 637.795   L 169.493, 566.929  "/>
<path d="M 0.000, 698.520   L 70.866, 639.057  "/>
<path d="M 72.369, 637.795   L 156.824, 566.929  "/>
<path d="M 0.000, 687.891   L 144.156, 566.929  "/>
<path d="M 0.000, 677.261   L 131.488, 566.929  "/>
<path d="M 0.000, 666.631   L 118.820, 566.929  "/>
<path d="M 0.000, 656.001   L 106.151, 566.929  "/>
<path d="M 0.000, 645.371   L 93.483, 566.929  "/>
<path d="M 0.000, 634.741   L 80.815, 566.929  "/>
<path d="M 0.000, 624.111   L 68.147, 566.929  "/>
<path d="M 0.000, 613.481   L 55.478, 566.929  "/>
<path d="M 0.000, 602.851   L 42.810, 566.929  "/>
<path d="M 0.000, 592.221   L 30.142, 566.929  "/>
<path d="M 0.000, 581.591   L 17.474, 566.929  "/>
<path d="M 0.000, 570.961   L 4.805, 566.929  "/>
<path d="M 425.198, 708.661   L 425.197, 708.662  "/>
<path d="M 431.489, 850.119   L 511.304, 821.069  "/>
<path d="M 405.623, 848.904   L 530.338, 803.511  "/>
<path d="M 386.948, 845.071   L 542.179, 788.571  "/>
<path d="M 371.989, 839.886   L 550.306, 774.983  "/>
<path d="M 359.167, 833.923   L 556.295, 762.174  "/>
<path d="M 347.985, 827.363   L 560.644, 749.961  "/>
<path d="M 338.119, 820.324   L 563.678, 738.227  "/>
<path d="M 329.347, 812.886   L 421.449, 779.364  "/>
<path d="M 473.515, 760.414   L 565.616, 726.891  "/>
<path d="M 321.518, 805.106   L 402.340, 775.689  "/>
<path d="M 485.791, 745.315   L 566.613, 715.899  "/>
<path d="M 314.520, 797.023   L 389.367, 769.781  "/>
<path d="M 491.931, 732.451   L 566.778, 705.209  "/>
<path d="M 308.275, 788.666   L 379.443, 762.763  "/>
<path d="M 495.022, 720.696   L 566.190, 694.793  "/>
<path d="M 302.778, 780.037   L 371.615, 754.982  "/>
<path d="M 496.018, 709.704   L 564.855, 684.649  "/>
<path d="M 298.076, 771.119   L 365.425, 746.606  "/>
<path d="M 495.375, 699.307   L 562.724, 674.794  "/>
<path d="M 294.013, 761.967   L 360.605, 737.730  "/>
<path d="M 493.362, 689.410   L 559.954, 665.173  "/>
<path d="M 290.578, 752.588   L 357.170, 728.350  "/>
<path d="M 489.964, 680.017   L 556.556, 655.779  "/>
<path d="M 287.770, 742.980   L 355.080, 718.481  "/>
<path d="M 485.221, 671.113   L 552.532, 646.614  "/>
<path d="M 285.600, 733.140   L 354.355, 708.115  "/>
<path d="M 479.114, 662.706   L 547.868, 637.682  "/>
<path d="M 284.265, 722.996   L 355.304, 697.139  "/>
<path d="M 471.332, 654.909   L 542.371, 629.053  "/>
<path d="M 283.636, 712.595   L 358.290, 685.423  "/>
<path d="M 461.514, 647.852   L 536.167, 620.681  "/>
<path d="M 283.759, 701.920   L 364.198, 672.642  "/>
<path d="M 448.772, 641.860   L 529.211, 612.583  "/>
<path d="M 284.710, 690.944   L 375.996, 657.718  "/>
<path d="M 430.141, 638.011   L 521.427, 604.786  "/>
<path d="M 286.598, 679.627   L 512.706, 597.330  "/>
<path d="M 289.576, 667.913   L 502.896, 590.271  "/>
<path d="M 293.861, 655.724   L 491.779, 583.687  "/>
<path d="M 299.774, 642.941   L 479.032, 577.697  "/>
<path d="M 307.810, 629.387   L 464.163, 572.479  "/>
<path d="M 319.386, 614.543   L 445.755, 568.549  "/>
<path d="M 337.881, 597.182   L 420.427, 567.137  "/>
<path d="M 283.465, 850.393   L 283.465, 850.394  "/>
<path d="M 407.424, 850.394   L 425.197, 840.132  "/>
<path d="M 389.012, 850.394   L 425.197, 829.503  "/>
<path d="M 370.601, 850.394   L 425.197, 818.873  "/>
<path d="M 352.189, 850.394   L 425.197, 808.243  "/>
<path d="M 333.777, 850.394   L 425.197, 797.613  "/>
<path d="M 315.366, 850.394   L 425.197, 786.983  "/>
<path d="M 560.853, 708.662   L 566.929, 705.154  "/>
<path d="M 296.954, 850.394   L 425.197, 776.353  "/>
<path d="M 542.442, 708.662   L 566.929, 694.524  "/>
<path d="M 283.465, 847.552   L 425.197, 765.723  "/>
<path d="M 524.030, 708.662   L 566.929, 683.894  "/>
<path d="M 283.465, 836.922   L 425.197, 755.093  "/>
<path d="M 505.619, 708.662   L 566.929, 673.264  "/>
<path d="M 283.465, 826.292   L 425.197, 744.463  "/>
<path d="M 487.207, 708.662   L 566.929, 662.634  "/>
<path d="M 283.465, 815.662   L 425.197, 733.833  "/>
<path d="M 468.796, 708.662   L 566.929, 652.004  "/>
<path d="M 283.465, 805.033   L 425.197, 723.203  "/>
<path d="M 450.384, 708.662   L 566.929, 641.374  "/>
<path d="M 283.465, 794.403   L 425.197, 712.573  "/>
<path d="M 431.972, 708.662   L 566.929, 630.744  "/>
<path d="M 283.465, 783.773   L 413.561, 708.662  "/>
<path d="M 425.197, 701.943   L 566.929, 620.114  "/>
<path d="M 283.465, 773.143   L 395.149, 708.662  "/>
<path d="M 425.197, 691.314   L 566.929, 609.484  "/>
<path d="M 283.465, 762.513   L 376.738, 708.662  "/>
<path d="M 425.197, 680.684   L 566.929, 598.854  "/>
<path d="M 283.465, 751.883   L 358.326, 708.662  "/>
<path d="M 425.197, 670.054   L 566.929, 588.225  "/>
<path d="M 283.465, 741.253   L 339.915, 708.662  "/>
<path d="M 425.197, 659.424   L 566.929, 577.595  "/>
<path d="M 283.465, 730.623   L 321.503, 708.662  "/>
<path d="M 425.197, 648.794   L 566.929, 566.965  "/>
<path d="M 283.465, 719.993   L 303.091, 708.662  "/>
<path d="M 425.197, 638.164   L 548.579, 566.929  "/>
<path d="M 283.465, 709.363   L 284.680, 708.662  "/>
<path d="M 425.197, 627.534   L 530.167, 566.929  "/>
<path d="M 425.197, 616.904   L 511.756, 566.929  "/>
<path d="M 425.197, 606.274   L 493.344, 566.929  "/>
<path d="M 425.197, 595.644   L 474.933, 566.929  "/>
<path d="M 425.197, 585.014   L 456.521, 566.929  "/>
<path d="M 425.197, 574.384   L 438.110, 566.929  "/>
<path d="M 566.930, 850.393   L 566.929, 850.394  "/>
<path d="M 841.991, 850.394   L 846.560, 846.560  "/>
<path d="M 829.322, 850.394   L 840.780, 840.780  "/>
<path d="M 816.654, 850.394   L 835.000, 835.000  "/>
<path d="M 803.986, 850.394   L 829.220, 829.220  "/>
<path d="M 791.318, 850.394   L 823.440, 823.440  "/>
<path d="M 778.649, 850.394   L 817.660, 817.660  "/>
<path d="M 765.981, 850.394   L 811.880, 811.880  "/>
<path d="M 753.313, 850.394   L 806.100, 806.100  "/>
<path d="M 740.645, 850.394   L 800.320, 800.320  "/>
<path d="M 727.976, 850.394   L 794.540, 794.540  "/>
<path d="M 715.308, 850.394   L 788.760, 788.760  "/>
<path d="M 702.640, 850.394   L 782.980, 782.980  "/>
<path d="M 689.972, 850.394   L 777.200, 777.200  "/>
<path d="M 677.303, 850.394   L 771.420, 771.420  "/>
<path d="M 664.635, 850.394   L 765.640, 765.640  "/>
<path d="M 651.967, 850.394   L 759.860, 759.860  "/>
<path d="M 639.299, 850.394   L 754.080, 754.080  "/>
<path d="M 626.630, 850.394   L 748.300, 748.300  "/>
<path d="M 613.962, 850.394   L 742.521, 742.521  "/>
<path d="M 601.294, 850.394   L 736.741, 736.741  "/>
<path d="M 588.626, 850.394   L 730.961, 730.961  "/>
<path d="M 575.957, 850.394   L 725.181, 725.181  "/>
<path d="M 585.913, 831.410   L 719.401, 719.401  "/>
<path d="M 651.978, 765.345   L 713.621, 713.621  "/>
<path d="M 707.841, 707.841   L 718.043, 699.280  "/>
<path d="M 702.061, 702.061   L 784.108, 633.215  "/>
<path d="M 696.281, 696.281   L 850.174, 567.149  "/>
<path d="M 690.501, 690.501   L 837.768, 566.929  "/>
<path d="M 684.721, 684.721   L 825.100, 566.929  "/>
<path d="M 678.941, 678.941   L 812.431, 566.929  "/>
<path d="M 673.161, 673.161   L 799.763, 566.929  "/>
<path d="M 667.381, 667.381   L 787.095, 566.929  "/>
<path d="M 661.601, 661.601   L 774.427, 566.929  "/>
<path d="M 655.821, 655.821   L 761.758, 566.929  "/>
<path d="M 650.041, 650.041   L 749.090, 566.929  "/>
<path d="M 644.261, 644.261   L 736.422, 566.929  "/>
<path d="M 638.481, 638.481   L 723.754, 566.929  "/>
<path d="M 632.701, 632.701   L 711.085, 566.929  "/>
<path d="M 626.921, 626.921   L 698.417, 566.929  "/>
<path d="M 621.141, 621.141   L 685.749, 566.929  "/>
<path d="M 615.361, 615.361   L 673.081, 566.929  "/>
<path d="M 609.581, 609.581   L 660.412, 566.929  "/>
<path d="M 603.801, 603.801   L 647.744, 566.929  "/>
<path d="M 598.021, 598.021   L 635.076, 566.929  "/>
<path d="M 592.242, 592.242   L 622.408, 566.929  "/>
<path d="M 586.462, 586.462   L 609.739, 566.929  "/>
<path d="M 580.682, 580.682   L 597.071, 566.929  "/>
<path d="M 574.902, 574.902   L 584.403, 566.929  "/>
<path d="M 569.122, 569.122   L 571.735, 566.929  "/>
<path d="M 816.372, 840.000   L 832.683, 826.314  "/>
<path d="M 792.876, 849.086   L 845.711, 804.752  "/>
<path d="M 778.693, 850.357   L 849.426, 791.005  "/>
<path d="M 767.258, 849.322   L 850.392, 779.564  "/>
<path d="M 757.555, 846.834   L 849.627, 769.576  "/>
<path d="M 748.948, 843.426   L 847.765, 760.509  "/>
<path d="M 741.364, 839.160   L 844.881, 752.299  "/>
<path d="M 734.546, 834.252   L 841.231, 744.732  "/>
<path d="M 728.530, 828.669   L 836.778, 737.838  "/>
<path d="M 723.243, 822.476   L 831.597, 731.556  "/>
<path d="M 718.635, 815.713   L 825.737, 725.843  "/>
<path d="M 714.810, 808.292   L 819.093, 720.788  "/>
<path d="M 654.381, 848.368   L 702.710, 807.815  "/>
<path d="M 711.806, 800.183   L 811.629, 716.421  "/>
<path d="M 639.381, 850.325   L 707.241, 793.383  "/>
<path d="M 709.674, 791.342   L 803.293, 712.786  "/>
<path d="M 627.585, 849.593   L 708.569, 781.639  "/>
<path d="M 708.747, 781.490   L 793.751, 710.163  "/>
<path d="M 798.748, 705.970   L 843.329, 668.562  "/>
<path d="M 617.554, 847.380   L 708.132, 771.376  "/>
<path d="M 709.323, 770.377   L 782.707, 708.800  "/>
<path d="M 783.056, 708.507   L 848.553, 653.549  "/>
<path d="M 608.757, 844.132   L 706.460, 762.149  "/>
<path d="M 712.324, 757.228   L 769.237, 709.473  "/>
<path d="M 770.909, 708.070   L 850.232, 641.510  "/>
<path d="M 600.986, 840.023   L 703.763, 753.782  "/>
<path d="M 721.426, 738.961   L 749.666, 715.265  "/>
<path d="M 760.624, 706.070   L 850.047, 631.035  "/>
<path d="M 594.057, 835.206   L 700.223, 746.123  "/>
<path d="M 751.722, 702.910   L 848.481, 621.719  "/>
<path d="M 587.848, 829.787   L 695.964, 739.066  "/>
<path d="M 743.764, 698.957   L 845.970, 613.196  "/>
<path d="M 582.444, 823.691   L 690.900, 732.686  "/>
<path d="M 736.751, 694.212   L 842.515, 605.466  "/>
<path d="M 577.732, 817.015   L 685.143, 726.887  "/>
<path d="M 730.460, 688.861   L 838.338, 598.341  "/>
<path d="M 573.714, 809.756   L 678.692, 721.669  "/>
<path d="M 724.897, 682.899   L 833.433, 591.827  "/>
<path d="M 570.572, 801.763   L 671.366, 717.187  "/>
<path d="M 720.106, 676.289   L 827.755, 585.961  "/>
<path d="M 568.277, 793.058   L 663.192, 713.415  "/>
<path d="M 716.006, 669.099   L 821.386, 580.675  "/>
<path d="M 567.099, 783.417   L 653.902, 710.581  "/>
<path d="M 660.831, 704.767   L 699.749, 672.111  "/>
<path d="M 712.689, 661.253   L 814.235, 576.046  "/>
<path d="M 567.295, 772.623   L 643.238, 708.899  "/>
<path d="M 643.836, 708.398   L 706.276, 656.004  "/>
<path d="M 710.299, 652.629   L 806.157, 572.194  "/>
<path d="M 569.735, 759.946   L 630.329, 709.101  "/>
<path d="M 631.235, 708.341   L 708.409, 643.585  "/>
<path d="M 708.896, 643.175   L 797.091, 569.171  "/>
<path d="M 576.959, 743.254   L 612.637, 713.317  "/>
<path d="M 620.726, 706.529   L 708.449, 632.921  "/>
<path d="M 708.891, 632.550   L 786.628, 567.321  "/>
<path d="M 611.584, 703.570   L 707.123, 623.404  "/>
<path d="M 710.904, 620.231   L 774.147, 567.164  "/>
<path d="M 603.474, 699.746   L 704.765, 614.753  "/>
<path d="M 717.089, 604.411   L 757.493, 570.508  "/>
<path d="M 596.263, 695.166   L 701.507, 606.856  "/>
<path d="M 589.866, 689.904   L 697.435, 599.643  "/>
<path d="M 584.162, 684.060   L 692.671, 593.011  "/>
<path d="M 579.203, 677.592   L 687.161, 587.004  "/>
<path d="M 574.998, 670.490   L 680.898, 581.629  "/>
<path d="M 571.514, 662.784   L 673.914, 576.860  "/>
<path d="M 568.940, 654.314   L 666.019, 572.854  "/>
<path d="M 567.338, 645.028   L 657.153, 569.664  "/>
<path d="M 567.068, 634.625   L 646.955, 567.592  "/>
<path d="M 568.627, 622.686   L 634.927, 567.054  "/>
<path d="M 573.528, 607.944   L 619.557, 569.321  "/>
<path d="M 141.733, 425.196   L 141.732, 425.197  "/>
<path d="M 227.799, 537.636   L 267.408, 490.431  "/>
<path d="M 208.397, 550.128   L 276.342, 469.154  "/>
<path d="M 193.800, 556.894   L 280.470, 453.605  "/>
<path d="M 181.266, 561.201   L 282.535, 440.513  "/>
<path d="M 170.033, 563.958   L 283.300, 428.972  "/>
<path d="M 159.692, 565.652   L 283.172, 418.494  "/>
<path d="M 150.004, 566.568   L 282.392, 408.794  "/>
<path d="M 140.815, 566.889   L 281.113, 399.689  "/>
<path d="M 132.211, 566.514   L 279.249, 391.280  "/>
<path d="M 123.990, 565.680   L 277.001, 383.330  "/>
<path d="M 116.032, 564.535   L 187.778, 479.031  "/>
<path d="M 202.744, 461.195   L 274.490, 375.691  "/>
<path d="M 108.511, 562.867   L 169.316, 490.403  "/>
<path d="M 210.738, 441.038   L 271.542, 368.575  "/>
<path d="M 101.243, 560.900   L 157.125, 494.302  "/>
<path d="M 212.461, 428.356   L 268.343, 361.758  "/>
<path d="M 94.189, 558.676   L 146.918, 495.837  "/>
<path d="M 212.199, 418.037   L 264.928, 355.198  "/>
<path d="M 87.513, 556.002   L 137.947, 495.898  "/>
<path d="M 210.702, 409.192   L 261.136, 349.087  "/>
<path d="M 80.952, 553.191   L 129.756, 495.030  "/>
<path d="M 208.425, 401.276   L 257.228, 343.114  "/>
<path d="M 74.744, 549.960   L 122.287, 493.300  "/>
<path d="M 205.425, 394.221   L 252.967, 337.562  "/>
<path d="M 68.685, 546.551   L 115.373, 490.910  "/>
<path d="M 201.870, 387.827   L 248.558, 332.186  "/>
<path d="M 62.873, 542.848   L 108.942, 487.945  "/>
<path d="M 197.833, 382.009   L 243.902, 327.105  "/>
<path d="M 57.285, 538.878   L 102.961, 484.442  "/>
<path d="M 193.345, 376.727   L 239.022, 322.292  "/>
<path d="M 51.859, 534.714   L 97.411, 480.427  "/>
<path d="M 188.427, 371.958   L 233.979, 317.671  "/>
<path d="M 46.729, 530.197   L 92.281, 475.911  "/>
<path d="M 183.088, 367.691   L 228.640, 313.404  "/>
<path d="M 41.687, 525.577   L 87.575, 470.890  "/>
<path d="M 177.326, 363.928   L 223.214, 309.241  "/>
<path d="M 37.017, 520.511   L 83.340, 465.307  "/>
<path d="M 171.093, 360.727   L 217.415, 305.522  "/>
<path d="M 32.429, 515.350   L 79.589, 459.147  "/>
<path d="M 164.376, 358.102   L 211.535, 301.900  "/>
<path d="M 28.169, 509.797   L 76.356, 452.370  "/>
<path d="M 157.140, 356.095   L 205.327, 298.668  "/>
<path d="M 24.075, 504.046   L 73.709, 444.895  "/>
<path d="M 149.319, 354.786   L 198.953, 295.635  "/>
<path d="M 20.225, 498.004   L 71.814, 436.523  "/>
<path d="M 140.745, 354.374   L 192.334, 292.893  "/>
<path d="M 16.671, 491.610   L 70.942, 426.932  "/>
<path d="M 131.149, 355.181   L 185.420, 290.503  "/>
<path d="M 13.259, 485.046   L 71.596, 415.522  "/>
<path d="M 120.026, 357.806   L 178.363, 288.282  "/>
<path d="M 10.311, 477.929   L 75.377, 400.387  "/>
<path d="M 105.777, 364.158   L 170.843, 286.615  "/>
<path d="M 7.569, 470.568   L 163.117, 285.193  "/>
<path d="M 5.132, 462.841   L 155.084, 284.135  "/>
<path d="M 3.197, 454.518   L 146.551, 283.675  "/>
<path d="M 1.621, 445.766   L 137.659, 283.642  "/>
<path d="M 0.493, 436.481   L 128.319, 284.144  "/>
<path d="M 0.052, 426.377   L 118.292, 285.464  "/>
<path d="M 0.432, 415.293   L 107.442, 287.764  "/>
<path d="M 1.837, 402.989   L 95.569, 291.283  "/>
<path d="M 4.745, 388.893   L 82.192, 296.595  "/>
<path d="M 10.993, 370.817   L 65.476, 305.887  "/>
<path d="M 0.001, 566.929   L 0.000, 566.929  "/>
<path d="M 0.001, 425.196   L 0.000, 425.197  "/>
<path d="M 274.575, 566.929   L 283.465, 556.335  "/>
<path d="M 265.655, 566.929   L 283.465, 545.705  "/>
<path d="M 256.736, 566.929   L 283.465, 535.075  "/>
<path d="M 247.816, 566.929   L 283.465, 524.445  "/>
<path d="M 238.897, 566.929   L 283.465, 513.815  "/>
<path d="M 229.977, 566.929   L 283.465, 503.185  "/>
<path d="M 221.057, 566.929   L 283.465, 492.555  "/>
<path d="M 212.138, 566.929   L 283.465, 481.925  "/>
<path d="M 203.218, 566.929   L 283.465, 471.295  "/>
<path d="M 194.299, 566.929   L 283.465, 460.665  "/>
<path d="M 185.379, 566.929   L 283.465, 450.036  "/>
<path d="M 176.460, 566.929   L 283.465, 439.406  "/>
<path d="M 167.540, 566.929   L 283.465, 428.776  "/>
<path d="M 158.620, 566.929   L 246.693, 461.969  "/>
<path d="M 280.247, 421.980   L 283.465, 418.146  "/>
<path d="M 149.701, 566.929   L 191.257, 517.404  "/>
<path d="M 275.398, 417.130   L 283.465, 407.516  "/>
<path d="M 140.781, 566.929   L 141.215, 566.412  "/>
<path d="M 270.548, 412.280   L 283.465, 396.886  "/>
<path d="M 131.862, 566.929   L 136.365, 561.562  "/>
<path d="M 265.698, 407.430   L 283.465, 386.256  "/>
<path d="M 122.942, 566.929   L 131.515, 556.712  "/>
<path d="M 260.848, 402.580   L 283.465, 375.626  "/>
<path d="M 114.023, 566.929   L 126.665, 551.862  "/>
<path d="M 255.998, 397.730   L 283.465, 364.996  "/>
<path d="M 105.103, 566.929   L 121.815, 547.012  "/>
<path d="M 251.148, 392.880   L 283.465, 354.366  "/>
<path d="M 96.183, 566.929   L 116.965, 542.162  "/>
<path d="M 246.298, 388.030   L 283.465, 343.736  "/>
<path d="M 87.264, 566.929   L 112.115, 537.312  "/>
<path d="M 241.448, 383.180   L 283.465, 333.106  "/>
<path d="M 78.344, 566.929   L 107.265, 532.462  "/>
<path d="M 236.598, 378.330   L 283.465, 322.476  "/>
<path d="M 69.425, 566.929   L 102.416, 527.612  "/>
<path d="M 231.748, 373.480   L 283.465, 311.847  "/>
<path d="M 60.505, 566.929   L 97.566, 522.762  "/>
<path d="M 226.898, 368.630   L 283.465, 301.217  "/>
<path d="M 51.586, 566.929   L 92.716, 517.912  "/>
<path d="M 222.048, 363.780   L 283.465, 290.587  "/>
<path d="M 42.666, 566.929   L 87.866, 513.063  "/>
<path d="M 217.198, 358.930   L 280.521, 283.465  "/>
<path d="M 33.747, 566.929   L 83.016, 508.213  "/>
<path d="M 212.348, 354.080   L 271.602, 283.465  "/>
<path d="M 24.827, 566.929   L 78.166, 503.363  "/>
<path d="M 207.498, 349.230   L 262.682, 283.465  "/>
<path d="M 15.907, 566.929   L 73.316, 498.513  "/>
<path d="M 202.648, 344.380   L 253.762, 283.465  "/>
<path d="M 6.988, 566.929   L 68.466, 493.663  "/>
<path d="M 197.798, 339.530   L 244.843, 283.465  "/>
<path d="M 0.000, 564.627   L 63.616, 488.813  "/>
<path d="M 192.948, 334.680   L 235.923, 283.465  "/>
<path d="M 0.000, 553.997   L 58.766, 483.963  "/>
<path d="M 188.098, 329.830   L 227.004, 283.465  "/>
<path d="M 0.000, 543.367   L 53.916, 479.113  "/>
<path d="M 183.248, 324.981   L 218.084, 283.465  "/>
<path d="M 0.000, 532.737   L 49.066, 474.263  "/>
<path d="M 178.398, 320.131   L 209.165, 283.465  "/>
<path d="M 0.000, 522.107   L 44.216, 469.413  "/>
<path d="M 173.548, 315.281   L 200.245, 283.465  "/>
<path d="M 0.000, 511.477   L 39.366, 464.563  "/>
<path d="M 168.698, 310.431   L 191.326, 283.465  "/>
<path d="M 0.000, 500.848   L 34.516, 459.713  "/>
<path d="M 163.848, 305.581   L 182.406, 283.465  "/>
<path d="M 0.000, 490.218   L 29.666, 454.863  "/>
<path d="M 158.998, 300.731   L 173.486, 283.465  "/>
<path d="M 0.000, 479.588   L 24.816, 450.013  "/>
<path d="M 154.148, 295.881   L 164.567, 283.465  "/>
<path d="M 0.000, 468.958   L 19.966, 445.163  "/>
<path d="M 149.298, 291.031   L 155.647, 283.465  "/>
<path d="M 0.000, 458.328   L 15.116, 440.313  "/>
<path d="M 144.449, 286.181   L 146.728, 283.465  "/>
<path d="M 0.000, 447.698   L 10.266, 435.463  "/>
<path d="M 117.343, 307.854   L 137.808, 283.465  "/>
<path d="M 0.000, 437.068   L 5.416, 430.613  "/>
<path d="M 61.908, 363.289   L 128.889, 283.465  "/>
<path d="M 0.000, 426.438   L 0.566, 425.763  "/>
<path d="M 6.473, 418.724   L 119.969, 283.465  "/>
<path d="M 0.000, 415.808   L 111.049, 283.465  "/>
<path d="M 0.000, 405.178   L 102.130, 283.465  "/>
<path d="M 0.000, 394.548   L 93.210, 283.465  "/>
<path d="M 0.000, 383.918   L 84.291, 283.465  "/>
<path d="M 0.000, 373.288   L 75.371, 283.465  "/>
<path d="M 0.000, 362.659   L 66.452, 283.465  "/>
<path d="M 0.000, 352.029   L 57.532, 283.465  "/>
<path d="M 0.000, 341.399   L 48.612, 283.465  "/>
<path d="M 0.000, 330.769   L 39.693, 283.465  "/>
<path d="M 0.000, 320.139   L 30.773, 283.465  "/>
<path d="M 0.000, 309.509   L 21.854, 283.465  "/>
<path d="M 0.000, 298.879   L 12.934, 283.465  "/>
<path d="M 0.000, 288.249   L 4.015, 283.465  "/>
<path d="M 425.198, 425.196   L 425.197, 425.197  "/>
<path d="M 468.503, 560.012   L 520.297, 530.108  "/>
<path d="M 439.485, 566.135   L 540.109, 508.040  "/>
<path d="M 420.085, 566.706   L 550.304, 491.524  "/>
<path d="M 404.193, 565.251   L 556.989, 477.034  "/>
<path d="M 390.483, 562.536   L 561.493, 463.804  "/>
<path d="M 378.369, 558.901   L 564.402, 451.494  "/>
<path d="M 367.484, 554.555   L 566.081, 439.895  "/>
<path d="M 357.590, 549.638   L 566.769, 428.868  "/>
<path d="M 348.525, 544.242   L 432.755, 495.612  "/>
<path d="M 482.399, 466.949   L 566.629, 418.319  "/>
<path d="M 340.172, 538.434   L 414.955, 495.258  "/>
<path d="M 490.993, 451.358   L 565.776, 408.182  "/>
<path d="M 332.449, 532.263   L 401.989, 492.114  "/>
<path d="M 494.753, 438.557   L 564.293, 398.408  "/>
<path d="M 325.332, 525.742   L 391.561, 487.505  "/>
<path d="M 495.975, 427.222   L 562.204, 388.984  "/>
<path d="M 318.925, 518.812   L 382.821, 481.921  "/>
<path d="M 495.509, 416.861   L 559.406, 379.970  "/>
<path d="M 313.013, 511.595   L 375.388, 475.583  "/>
<path d="M 493.737, 407.254   L 556.112, 371.242  "/>
<path d="M 307.576, 504.104   L 369.203, 468.524  "/>
<path d="M 490.716, 398.368   L 552.343, 362.788  "/>
<path d="M 302.625, 496.332   L 363.997, 460.899  "/>
<path d="M 486.716, 390.047   L 548.088, 354.614  "/>
<path d="M 298.346, 488.173   L 359.924, 452.621  "/>
<path d="M 481.583, 382.381   L 543.161, 346.829  "/>
<path d="M 294.528, 479.747   L 356.822, 443.782  "/>
<path d="M 475.479, 375.275   L 537.773, 339.310  "/>
<path d="M 291.185, 471.048   L 354.975, 434.218  "/>
<path d="M 468.121, 368.894   L 531.911, 332.064  "/>
<path d="M 288.349, 462.055   L 354.386, 423.928  "/>
<path d="M 459.504, 363.239   L 525.541, 325.112  "/>
<path d="M 286.245, 452.639   L 355.454, 412.682  "/>
<path d="M 449.230, 358.540   L 518.439, 318.583  "/>
<path d="M 284.708, 442.897   L 359.000, 400.005  "/>
<path d="M 436.478, 355.273   L 510.770, 312.380  "/>
<path d="M 283.796, 432.794   L 367.024, 384.742  "/>
<path d="M 419.248, 354.590   L 502.476, 306.539  "/>
<path d="M 283.592, 422.282   L 493.475, 301.106  "/>
<path d="M 284.208, 411.296   L 483.653, 296.146  "/>
<path d="M 285.804, 399.745   L 472.851, 291.753  "/>
<path d="M 288.617, 387.491   L 460.833, 288.062  "/>
<path d="M 293.003, 374.328   L 447.240, 285.280  "/>
<path d="M 299.542, 359.924   L 431.496, 283.740  "/>
<path d="M 309.269, 343.677   L 412.563, 284.041  "/>
<path d="M 327.922, 322.278   L 384.704, 289.495  "/>
<path d="M 283.465, 566.929   L 283.465, 566.929  "/>
<path d="M 354.331, 496.062   L 354.331, 496.063  "/>
<path d="M 537.821, 566.929   L 566.929, 556.335  "/>
<path d="M 508.616, 566.929   L 566.929, 545.705  "/>
<path d="M 479.410, 566.929   L 566.929, 535.075  "/>
<path d="M 450.205, 566.929   L 566.929, 524.445  "/>
<path d="M 420.999, 566.929   L 566.929, 513.815  "/>
<path d="M 391.794, 566.929   L 566.929, 503.185  "/>
<path d="M 362.588, 566.929   L 566.929, 492.555  "/>
<path d="M 333.383, 566.929   L 566.929, 481.925  "/>
<path d="M 304.177, 566.929   L 566.929, 471.295  "/>
<path d="M 283.465, 563.838   L 469.675, 496.063  "/>
<path d="M 496.063, 486.459   L 566.929, 460.665  "/>
<path d="M 283.465, 553.208   L 440.470, 496.063  "/>
<path d="M 496.063, 475.829   L 566.929, 450.036  "/>
<path d="M 283.465, 542.578   L 411.264, 496.063  "/>
<path d="M 496.063, 465.199   L 566.929, 439.406  "/>
<path d="M 283.465, 531.948   L 382.059, 496.063  "/>
<path d="M 496.063, 454.569   L 566.929, 428.776  "/>
<path d="M 283.465, 521.318   L 354.331, 495.525  "/>
<path d="M 496.063, 443.939   L 566.929, 418.146  "/>
<path d="M 283.465, 510.688   L 354.331, 484.895  "/>
<path d="M 496.063, 433.309   L 566.929, 407.516  "/>
<path d="M 283.465, 500.059   L 354.331, 474.265  "/>
<path d="M 496.063, 422.679   L 566.929, 396.886  "/>
<path d="M 283.465, 489.429   L 354.331, 463.636  "/>
<path d="M 496.063, 412.049   L 566.929, 386.256  "/>
<path d="M 283.465, 478.799   L 354.331, 453.006  "/>
<path d="M 496.063, 401.419   L 566.929, 375.626  "/>
<path d="M 283.465, 468.169   L 354.331, 442.376  "/>
<path d="M 496.063, 390.789   L 566.929, 364.996  "/>
<path d="M 283.465, 457.539   L 354.331, 431.746  "/>
<path d="M 496.063, 380.159   L 566.929, 354.366  "/>
<path d="M 283.465, 446.909   L 354.331, 421.116  "/>
<path d="M 496.063, 369.529   L 566.929, 343.736  "/>
<path d="M 283.465, 436.279   L 354.331, 410.486  "/>
<path d="M 496.063, 358.900   L 566.929, 333.106  "/>
<path d="M 283.465, 425.649   L 354.331, 399.856  "/>
<path d="M 479.410, 354.331   L 566.929, 322.476  "/>
<path d="M 283.465, 415.019   L 354.331, 389.226  "/>
<path d="M 450.205, 354.331   L 566.929, 311.847  "/>
<path d="M 283.465, 404.389   L 354.331, 378.596  "/>
<path d="M 420.999, 354.331   L 566.929, 301.217  "/>
<path d="M 283.465, 393.759   L 354.331, 367.966  "/>
<path d="M 391.794, 354.331   L 566.929, 290.587  "/>
<path d="M 283.465, 383.129   L 354.331, 357.336  "/>
<path d="M 362.588, 354.331   L 557.291, 283.465  "/>
<path d="M 283.465, 372.499   L 528.086, 283.465  "/>
<path d="M 283.465, 361.870   L 498.880, 283.465  "/>
<path d="M 283.465, 351.240   L 469.675, 283.465  "/>
<path d="M 283.465, 340.610   L 440.470, 283.465  "/>
<path d="M 283.465, 329.980   L 411.264, 283.465  "/>
<path d="M 283.465, 319.350   L 382.059, 283.465  "/>
<path d="M 283.465, 308.720   L 352.853, 283.465  "/>
<path d="M 283.465, 298.090   L 323.648, 283.465  "/>
<path d="M 283.465, 287.460   L 294.442, 283.465  "/>
<path d="M 566.930, 566.929   L 566.929, 566.929  "/>
<path d="M 821.286, 566.929   L 842.626, 559.162  "/>
<path d="M 792.080, 566.929   L 834.833, 551.368  "/>
<path d="M 762.875, 566.929   L 827.040, 543.575  "/>
<path d="M 733.669, 566.929   L 819.246, 535.782  "/>
<path d="M 704.464, 566.929   L 811.453, 527.988  "/>
<path d="M 675.258, 566.929   L 803.660, 520.195  "/>
<path d="M 646.053, 566.929   L 795.866, 512.402  "/>
<path d="M 616.847, 566.929   L 788.073, 504.608  "/>
<path d="M 587.642, 566.929   L 780.280, 496.815  "/>
<path d="M 571.789, 562.069   L 772.486, 489.022  "/>
<path d="M 588.502, 545.356   L 764.693, 481.228  "/>
<path d="M 605.215, 528.643   L 756.899, 473.435  "/>
<path d="M 621.928, 511.930   L 749.106, 465.641  "/>
<path d="M 638.641, 495.217   L 741.313, 457.848  "/>
<path d="M 655.354, 478.505   L 733.519, 450.055  "/>
<path d="M 672.067, 461.792   L 725.726, 442.261  "/>
<path d="M 688.780, 445.079   L 717.933, 434.468  "/>
<path d="M 705.493, 428.366   L 710.139, 426.675  "/>
<path d="M 702.346, 418.881   L 722.206, 411.653  "/>
<path d="M 694.552, 411.088   L 738.919, 394.940  "/>
<path d="M 686.759, 403.294   L 755.632, 378.227  "/>
<path d="M 678.966, 395.501   L 772.344, 361.514  "/>
<path d="M 671.172, 387.708   L 789.057, 344.801  "/>
<path d="M 663.379, 379.914   L 805.770, 328.088  "/>
<path d="M 655.586, 372.121   L 822.483, 311.375  "/>
<path d="M 647.792, 364.328   L 839.196, 294.662  "/>
<path d="M 639.999, 356.534   L 840.756, 283.465  "/>
<path d="M 632.205, 348.741   L 811.551, 283.465  "/>
<path d="M 624.412, 340.948   L 782.345, 283.465  "/>
<path d="M 616.619, 333.154   L 753.140, 283.465  "/>
<path d="M 608.825, 325.361   L 723.934, 283.465  "/>
<path d="M 601.032, 317.567   L 694.729, 283.465  "/>
<path d="M 593.239, 309.774   L 665.523, 283.465  "/>
<path d="M 585.445, 301.981   L 636.318, 283.465  "/>
<path d="M 577.652, 294.187   L 607.112, 283.465  "/>
<path d="M 569.859, 286.394   L 577.907, 283.465  "/>
<path d="M 708.662, 425.196   L 708.662, 425.197  "/>
<path d="M 794.728, 537.636   L 834.337, 490.431  "/>
<path d="M 775.326, 550.128   L 843.271, 469.154  "/>
<path d="M 760.729, 556.894   L 847.399, 453.605  "/>
<path d="M 748.195, 561.201   L 849.464, 440.513  "/>
<path d="M 736.962, 563.958   L 850.229, 428.972  "/>
<path d="M 726.622, 565.652   L 850.101, 418.494  "/>
<path d="M 716.933, 566.568   L 849.321, 408.794  "/>
<path d="M 707.744, 566.889   L 848.042, 399.689  "/>
<path d="M 699.140, 566.514   L 846.178, 391.280  "/>
<path d="M 690.919, 565.680   L 843.930, 383.330  "/>
<path d="M 682.961, 564.535   L 754.707, 479.031  "/>
<path d="M 769.674, 461.195   L 841.420, 375.691  "/>
<path d="M 675.441, 562.867   L 736.245, 490.403  "/>
<path d="M 777.667, 441.038   L 838.472, 368.575  "/>
<path d="M 668.172, 560.900   L 724.054, 494.302  "/>
<path d="M 779.390, 428.356   L 835.272, 361.758  "/>
<path d="M 661.119, 558.676   L 713.847, 495.837  "/>
<path d="M 779.129, 418.037   L 831.857, 355.198  "/>
<path d="M 654.442, 556.002   L 704.876, 495.898  "/>
<path d="M 777.631, 409.192   L 828.065, 349.087  "/>
<path d="M 647.882, 553.191   L 696.685, 495.030  "/>
<path d="M 775.354, 401.276   L 824.157, 343.114  "/>
<path d="M 641.674, 549.960   L 689.216, 493.300  "/>
<path d="M 772.354, 394.221   L 819.896, 337.562  "/>
<path d="M 635.614, 546.551   L 682.302, 490.910  "/>
<path d="M 768.799, 387.827   L 815.488, 332.186  "/>
<path d="M 629.802, 542.848   L 675.871, 487.945  "/>
<path d="M 764.762, 382.009   L 810.832, 327.105  "/>
<path d="M 624.214, 538.878   L 669.890, 484.442  "/>
<path d="M 760.274, 376.727   L 805.951, 322.292  "/>
<path d="M 618.788, 534.714   L 664.340, 480.427  "/>
<path d="M 755.357, 371.958   L 800.908, 317.671  "/>
<path d="M 613.658, 530.197   L 659.210, 475.911  "/>
<path d="M 750.018, 367.691   L 795.569, 313.404  "/>
<path d="M 608.616, 525.577   L 654.504, 470.890  "/>
<path d="M 744.256, 363.928   L 790.143, 309.241  "/>
<path d="M 603.947, 520.511   L 650.269, 465.307  "/>
<path d="M 738.022, 360.727   L 784.344, 305.522  "/>
<path d="M 599.358, 515.350   L 646.518, 459.147  "/>
<path d="M 731.305, 358.102   L 778.464, 301.900  "/>
<path d="M 595.098, 509.797   L 643.285, 452.370  "/>
<path d="M 724.069, 356.095   L 772.256, 298.668  "/>
<path d="M 591.004, 504.046   L 640.638, 444.895  "/>
<path d="M 716.248, 354.786   L 765.882, 295.635  "/>
<path d="M 587.154, 498.004   L 638.743, 436.523  "/>
<path d="M 707.674, 354.374   L 759.263, 292.893  "/>
<path d="M 583.600, 491.610   L 637.871, 426.932  "/>
<path d="M 698.078, 355.181   L 752.349, 290.503  "/>
<path d="M 580.188, 485.046   L 638.526, 415.522  "/>
<path d="M 686.955, 357.806   L 745.292, 288.282  "/>
<path d="M 577.240, 477.929   L 642.306, 400.387  "/>
<path d="M 672.706, 364.158   L 737.772, 286.615  "/>
<path d="M 574.498, 470.568   L 730.046, 285.193  "/>
<path d="M 572.062, 462.841   L 722.014, 284.135  "/>
<path d="M 570.126, 454.518   L 713.480, 283.675  "/>
<path d="M 568.550, 445.766   L 704.588, 283.642  "/>
<path d="M 567.422, 436.481   L 695.248, 284.144  "/>
<path d="M 566.981, 426.377   L 685.221, 285.464  "/>
<path d="M 567.362, 415.293   L 674.371, 287.764  "/>
<path d="M 568.766, 402.989   L 662.499, 291.283  "/>
<path d="M 571.675, 388.893   L 649.122, 296.595  "/>
<path d="M 577.922, 370.817   L 632.405, 305.887  "/>
<path d="M 141.733, 141.732   L 141.732, 141.732  "/>
<path d="M 220.290, 259.576   L 271.427, 198.633  "/>
<path d="M 203.117, 269.412   L 278.131, 180.013  "/>
<path d="M 189.352, 275.187   L 281.429, 165.454  "/>
<path d="M 177.338, 278.874   L 282.973, 152.983  "/>
<path d="M 166.380, 281.303   L 283.463, 141.770  "/>
<path d="M 156.350, 282.627   L 283.025, 131.662  "/>
<path d="M 146.918, 283.238   L 281.989, 122.267  "/>
<path d="M 137.947, 283.299   L 280.491, 113.421  "/>
<path d="M 129.345, 282.921   L 278.625, 105.016  "/>
<path d="M 121.313, 281.863   L 276.189, 97.289  "/>
<path d="M 113.525, 280.514   L 179.989, 201.305  "/>
<path d="M 207.043, 169.064   L 273.508, 89.854  "/>
<path d="M 106.005, 278.847   L 164.895, 208.664  "/>
<path d="M 211.669, 152.921   L 270.560, 82.738  "/>
<path d="M 98.892, 276.694   L 153.520, 211.590  "/>
<path d="M 212.576, 141.210   L 267.204, 76.107  "/>
<path d="M 91.926, 274.366   L 143.831, 212.507  "/>
<path d="M 211.796, 131.510   L 263.702, 69.651  "/>
<path d="M 85.307, 271.624   L 135.110, 212.270  "/>
<path d="M 210.049, 122.962   L 259.852, 63.608  "/>
<path d="M 78.883, 268.649   L 127.228, 211.034  "/>
<path d="M 207.463, 115.414   L 255.808, 57.799  "/>
<path d="M 72.675, 265.418   L 119.936, 209.094  "/>
<path d="M 204.286, 108.570   L 251.547, 52.246  "/>
<path d="M 66.747, 261.852   L 113.167, 206.532  "/>
<path d="M 200.587, 102.348   L 247.006, 47.028  "/>
<path d="M 60.935, 258.149   L 106.873, 203.403  "/>
<path d="M 196.413, 96.693   L 242.350, 41.947  "/>
<path d="M 55.476, 254.025   L 101.028, 199.738  "/>
<path d="M 191.789, 91.574   L 237.341, 37.287  "/>
<path d="M 50.091, 249.813   L 95.643, 195.526  "/>
<path d="M 186.706, 87.002   L 232.258, 32.715  "/>
<path d="M 45.048, 245.192   L 90.679, 190.812  "/>
<path d="M 181.201, 82.932   L 226.832, 28.552  "/>
<path d="M 40.121, 240.434   L 86.144, 185.587  "/>
<path d="M 175.268, 79.373   L 221.290, 24.526  "/>
<path d="M 35.465, 235.353   L 82.057, 179.828  "/>
<path d="M 168.887, 76.348   L 215.478, 20.823  "/>
<path d="M 31.009, 230.034   L 78.450, 173.496  "/>
<path d="M 162.025, 73.896   L 209.466, 17.358  "/>
<path d="M 26.749, 224.482   L 75.373, 166.533  "/>
<path d="M 154.633, 72.075   L 203.258, 14.126  "/>
<path d="M 22.791, 218.568   L 72.987, 158.747  "/>
<path d="M 146.551, 71.077   L 196.747, 11.256  "/>
<path d="M 18.947, 212.519   L 71.411, 149.996  "/>
<path d="M 137.659, 71.044   L 190.122, 8.521  "/>
<path d="M 15.532, 205.959   L 70.945, 139.920  "/>
<path d="M 127.656, 72.335   L 183.069, 6.297  "/>
<path d="M 12.276, 199.209   L 72.342, 127.626  "/>
<path d="M 115.791, 75.846   L 175.856, 4.262  "/>
<path d="M 9.328, 192.093   L 78.796, 109.304  "/>
<path d="M 98.868, 85.383   L 168.336, 2.595  "/>
<path d="M 6.757, 184.528   L 160.439, 1.376  "/>
<path d="M 4.440, 176.659   L 152.287, 0.461  "/>
<path d="M 2.576, 168.250   L 143.683, 0.085  "/>
<path d="M 1.218, 159.239   L 134.573, 0.313  "/>
<path d="M 0.346, 149.648   L 124.976, 1.119  "/>
<path d="M 0.106, 139.304   L 114.748, 2.679  "/>
<path d="M 0.730, 127.930   L 103.655, 5.269  "/>
<path d="M 2.610, 115.060   L 91.307, 9.355  "/>
<path d="M 6.478, 99.820   L 76.970, 15.811  "/>
<path d="M 14.306, 79.861   L 58.674, 26.985  "/>
<path d="M 0.001, 283.464   L 0.000, 283.465  "/>
<path d="M 70.867, 212.598   L 70.866, 212.598  "/>
<path d="M 277.389, 283.465   L 283.465, 279.957  "/>
<path d="M 258.977, 283.465   L 283.465, 269.327  "/>
<path d="M 240.566, 283.465   L 283.465, 258.697  "/>
<path d="M 222.154, 283.465   L 283.465, 248.067  "/>
<path d="M 203.743, 283.465   L 283.465, 237.437  "/>
<path d="M 185.331, 283.465   L 283.465, 226.807  "/>
<path d="M 166.919, 283.465   L 283.465, 216.177  "/>
<path d="M 148.508, 283.465   L 283.465, 205.547  "/>
<path d="M 130.096, 283.465   L 283.465, 194.917  "/>
<path d="M 111.685, 283.465   L 283.465, 184.287  "/>
<path d="M 93.273, 283.465   L 283.465, 173.658  "/>
<path d="M 74.862, 283.465   L 197.605, 212.598  "/>
<path d="M 212.598, 203.942   L 283.465, 163.028  "/>
<path d="M 56.450, 283.465   L 179.194, 212.598  "/>
<path d="M 212.598, 193.312   L 283.465, 152.398  "/>
<path d="M 38.038, 283.465   L 160.782, 212.598  "/>
<path d="M 212.598, 182.682   L 283.465, 141.768  "/>
<path d="M 19.627, 283.465   L 142.371, 212.598  "/>
<path d="M 212.598, 172.052   L 283.465, 131.138  "/>
<path d="M 1.215, 283.465   L 123.959, 212.598  "/>
<path d="M 212.598, 161.422   L 283.465, 120.508  "/>
<path d="M 0.000, 273.536   L 105.548, 212.598  "/>
<path d="M 212.598, 150.793   L 283.465, 109.878  "/>
<path d="M 0.000, 262.906   L 87.136, 212.598  "/>
<path d="M 212.598, 140.163   L 283.465, 99.248  "/>
<path d="M 0.000, 252.276   L 70.866, 211.362  "/>
<path d="M 212.598, 129.533   L 283.465, 88.618  "/>
<path d="M 0.000, 241.647   L 70.866, 200.732  "/>
<path d="M 212.598, 118.903   L 283.465, 77.988  "/>
<path d="M 0.000, 231.017   L 70.866, 190.102  "/>
<path d="M 212.598, 108.273   L 283.465, 67.358  "/>
<path d="M 0.000, 220.387   L 70.866, 179.472  "/>
<path d="M 212.598, 97.643   L 283.465, 56.728  "/>
<path d="M 0.000, 209.757   L 70.866, 168.842  "/>
<path d="M 212.598, 87.013   L 283.465, 46.098  "/>
<path d="M 0.000, 199.127   L 70.866, 158.212  "/>
<path d="M 212.598, 76.383   L 283.465, 35.469  "/>
<path d="M 0.000, 188.497   L 70.866, 147.582  "/>
<path d="M 203.743, 70.866   L 283.465, 24.839  "/>
<path d="M 0.000, 177.867   L 70.866, 136.952  "/>
<path d="M 185.331, 70.866   L 283.465, 14.209  "/>
<path d="M 0.000, 167.237   L 70.866, 126.323  "/>
<path d="M 166.919, 70.866   L 283.465, 3.579  "/>
<path d="M 0.000, 156.607   L 70.866, 115.693  "/>
<path d="M 148.508, 70.866   L 271.252, 0.000  "/>
<path d="M 0.000, 145.977   L 70.866, 105.063  "/>
<path d="M 130.096, 70.866   L 252.840, 0.000  "/>
<path d="M 0.000, 135.347   L 70.866, 94.433  "/>
<path d="M 111.685, 70.866   L 234.428, 0.000  "/>
<path d="M 0.000, 124.717   L 70.866, 83.803  "/>
<path d="M 93.273, 70.866   L 216.017, 0.000  "/>
<path d="M 0.000, 114.087   L 70.866, 73.173  "/>
<path d="M 74.862, 70.866   L 197.605, 0.000  "/>
<path d="M 0.000, 103.458   L 179.194, 0.000  "/>
<path d="M 0.000, 92.828   L 160.782, 0.000  "/>
<path d="M 0.000, 82.198   L 142.371, 0.000  "/>
<path d="M 0.000, 71.568   L 123.959, 0.000  "/>
<path d="M 0.000, 60.938   L 105.548, 0.000  "/>
<path d="M 0.000, 50.308   L 87.136, 0.000  "/>
<path d="M 0.000, 39.678   L 68.724, 0.000  "/>
<path d="M 0.000, 29.048   L 50.313, 0.000  "/>
<path d="M 0.000, 18.418   L 31.901, 0.000  "/>
<path d="M 0.000, 7.788   L 13.490, 0.000  "/>
<path d="M 283.465, 283.464   L 283.465, 283.465  "/>
<path d="M 423.398, 283.465   L 425.197, 281.955  "/>
<path d="M 410.730, 283.465   L 425.197, 271.325  "/>
<path d="M 398.061, 283.465   L 425.197, 260.695  "/>
<path d="M 385.393, 283.465   L 425.197, 250.065  "/>
<path d="M 554.303, 141.732   L 566.929, 131.138  "/>
<path d="M 372.725, 283.465   L 425.197, 239.435  "/>
<path d="M 541.635, 141.732   L 566.929, 120.508  "/>
<path d="M 360.057, 283.465   L 425.197, 228.805  "/>
<path d="M 528.967, 141.732   L 566.929, 109.878  "/>
<path d="M 347.388, 283.465   L 425.197, 218.176  "/>
<path d="M 516.298, 141.732   L 566.929, 99.248  "/>
<path d="M 334.720, 283.465   L 425.197, 207.546  "/>
<path d="M 503.630, 141.732   L 566.929, 88.618  "/>
<path d="M 322.052, 283.465   L 425.197, 196.916  "/>
<path d="M 490.962, 141.732   L 566.929, 77.988  "/>
<path d="M 309.384, 283.465   L 425.197, 186.286  "/>
<path d="M 478.294, 141.732   L 566.929, 67.358  "/>
<path d="M 296.715, 283.465   L 425.197, 175.656  "/>
<path d="M 465.625, 141.732   L 566.929, 56.728  "/>
<path d="M 284.047, 283.465   L 425.197, 165.026  "/>
<path d="M 452.957, 141.732   L 566.929, 46.098  "/>
<path d="M 283.465, 273.324   L 425.197, 154.396  "/>
<path d="M 440.289, 141.732   L 566.929, 35.469  "/>
<path d="M 283.465, 262.694   L 425.197, 143.766  "/>
<path d="M 427.621, 141.732   L 566.929, 24.839  "/>
<path d="M 283.465, 252.064   L 414.952, 141.732  "/>
<path d="M 425.197, 133.136   L 566.929, 14.209  "/>
<path d="M 283.465, 241.434   L 402.284, 141.732  "/>
<path d="M 425.197, 122.506   L 566.929, 3.579  "/>
<path d="M 283.465, 230.804   L 389.616, 141.732  "/>
<path d="M 425.197, 111.876   L 558.526, 0.000  "/>
<path d="M 283.465, 220.174   L 376.948, 141.732  "/>
<path d="M 425.197, 101.246   L 545.858, 0.000  "/>
<path d="M 283.465, 209.544   L 364.279, 141.732  "/>
<path d="M 425.197, 90.616   L 533.189, 0.000  "/>
<path d="M 283.465, 198.914   L 351.611, 141.732  "/>
<path d="M 425.197, 79.987   L 520.521, 0.000  "/>
<path d="M 283.465, 188.284   L 338.943, 141.732  "/>
<path d="M 425.197, 69.357   L 507.853, 0.000  "/>
<path d="M 283.465, 177.654   L 326.275, 141.732  "/>
<path d="M 425.197, 58.727   L 495.185, 0.000  "/>
<path d="M 283.465, 167.024   L 313.606, 141.732  "/>
<path d="M 425.197, 48.097   L 482.516, 0.000  "/>
<path d="M 283.465, 156.394   L 300.938, 141.732  "/>
<path d="M 425.197, 37.467   L 469.848, 0.000  "/>
<path d="M 283.465, 145.764   L 288.270, 141.732  "/>
<path d="M 425.197, 26.837   L 457.180, 0.000  "/>
<path d="M 425.197, 16.207   L 444.512, 0.000  "/>
<path d="M 425.197, 5.577   L 431.843, 0.000  "/>
<path d="M 544.230, 264.488   L 555.529, 251.023  "/>
<path d="M 524.398, 277.494   L 564.893, 229.234  "/>
<path d="M 512.058, 281.570   L 566.764, 216.374  "/>
<path d="M 501.757, 283.216   L 566.597, 205.944  "/>
<path d="M 492.751, 283.320   L 565.135, 197.056  "/>
<path d="M 484.528, 282.489   L 562.889, 189.102  "/>
<path d="M 477.006, 280.824   L 559.943, 181.983  "/>
<path d="M 470.068, 278.463   L 556.413, 175.561  "/>
<path d="M 463.614, 275.524   L 552.398, 169.716  "/>
<path d="M 457.612, 272.047   L 547.932, 164.408  "/>
<path d="M 452.040, 268.058   L 543.035, 159.613  "/>
<path d="M 446.889, 263.566   L 537.717, 155.321  "/>
<path d="M 442.161, 258.570   L 531.977, 151.533  "/>
<path d="M 437.882, 253.040   L 525.788, 148.279  "/>
<path d="M 434.107, 246.909   L 519.094, 145.626  "/>
<path d="M 529.422, 133.318   L 563.359, 92.873  "/>
<path d="M 430.849, 240.163   L 511.884, 143.588  "/>
<path d="M 515.850, 138.862   L 566.462, 78.545  "/>
<path d="M 398.826, 267.696   L 416.318, 246.850  "/>
<path d="M 428.173, 232.721   L 504.091, 142.246  "/>
<path d="M 505.060, 141.091   L 566.784, 67.532  "/>
<path d="M 381.163, 278.116   L 423.513, 227.646  "/>
<path d="M 426.211, 224.430   L 495.585, 141.753  "/>
<path d="M 495.619, 141.713   L 565.756, 58.126  "/>
<path d="M 369.121, 281.837   L 425.086, 215.141  "/>
<path d="M 425.297, 214.889   L 486.031, 142.510  "/>
<path d="M 487.205, 141.110   L 563.701, 49.945  "/>
<path d="M 359.007, 283.260   L 424.731, 204.933  "/>
<path d="M 425.836, 203.617   L 475.023, 144.998  "/>
<path d="M 479.465, 139.704   L 560.973, 42.567  "/>
<path d="M 350.072, 283.279   L 423.198, 196.131  "/>
<path d="M 429.322, 188.833   L 461.069, 150.998  "/>
<path d="M 472.303, 137.609   L 557.666, 35.878  "/>
<path d="M 341.920, 282.365   L 420.882, 188.261  "/>
<path d="M 465.683, 134.869   L 553.818, 29.834  "/>
<path d="M 334.498, 280.580   L 417.835, 181.262  "/>
<path d="M 459.549, 131.549   L 549.484, 24.369  "/>
<path d="M 327.608, 278.161   L 414.257, 174.896  "/>
<path d="M 453.848, 127.713   L 544.716, 19.421  "/>
<path d="M 321.199, 275.168   L 410.197, 169.105  "/>
<path d="M 448.570, 123.374   L 539.526, 14.977  "/>
<path d="M 315.240, 271.640   L 405.688, 163.849  "/>
<path d="M 443.713, 118.532   L 533.914, 11.035  "/>
<path d="M 309.711, 267.600   L 400.749, 159.105  "/>
<path d="M 439.288, 113.175   L 527.871, 7.607  "/>
<path d="M 304.602, 263.058   L 395.389, 154.863  "/>
<path d="M 435.316, 107.280   L 521.375, 4.719  "/>
<path d="M 299.928, 257.999   L 389.595, 151.138  "/>
<path d="M 431.831, 100.803   L 514.391, 2.412  "/>
<path d="M 295.727, 252.376   L 383.328, 147.977  "/>
<path d="M 428.985, 93.564   L 506.769, 0.866  "/>
<path d="M 291.999, 246.188   L 376.586, 145.381  "/>
<path d="M 385.948, 134.225   L 422.217, 91.001  "/>
<path d="M 426.799, 85.540   L 498.487, 0.106  "/>
<path d="M 288.792, 239.380   L 369.325, 143.405  "/>
<path d="M 372.784, 139.282   L 424.912, 77.159  "/>
<path d="M 425.444, 76.525   L 489.373, 0.337  "/>
<path d="M 286.173, 231.872   L 361.476, 142.129  "/>
<path d="M 362.225, 141.237   L 425.003, 66.421  "/>
<path d="M 425.412, 65.933   L 478.936, 2.145  "/>
<path d="M 284.346, 223.420   L 352.835, 141.798  "/>
<path d="M 352.940, 141.672   L 423.819, 57.202  "/>
<path d="M 427.564, 52.738   L 466.316, 6.556  "/>
<path d="M 283.516, 213.778   L 343.196, 142.655  "/>
<path d="M 344.590, 140.993   L 421.701, 49.096  "/>
<path d="M 284.286, 202.231   L 331.957, 145.418  "/>
<path d="M 336.906, 139.521   L 418.917, 41.784  "/>
<path d="M 288.454, 186.634   L 317.322, 152.231  "/>
<path d="M 329.814, 137.343   L 415.540, 35.178  "/>
<path d="M 323.269, 134.513   L 411.617, 29.224  "/>
<path d="M 317.178, 131.142   L 407.240, 23.811  "/>
<path d="M 311.519, 127.256   L 402.429, 18.913  "/>
<path d="M 306.283, 122.866   L 397.197, 14.519  "/>
<path d="M 301.469, 117.973   L 391.543, 10.628  "/>
<path d="M 297.088, 112.565   L 385.456, 7.252  "/>
<path d="M 293.160, 106.615   L 378.915, 4.417  "/>
<path d="M 289.775, 100.020   L 371.832, 2.228  "/>
<path d="M 286.985, 92.715   L 364.153, 0.750  "/>
<path d="M 284.861, 84.616   L 355.808, 0.064  "/>
<path d="M 283.663, 75.414   L 346.538, 0.482  "/>
<path d="M 283.734, 64.700   L 335.999, 2.412  "/>
<path d="M 286.390, 50.904   L 322.874, 7.424  "/>
<path d="M 790.687, 282.539   L 834.518, 257.233  "/>
<path d="M 771.550, 282.958   L 844.450, 240.869  "/>
<path d="M 758.118, 280.083   L 848.675, 227.799  "/>
<path d="M 747.354, 275.667   L 850.234, 216.270  "/>
<path d="M 738.346, 270.238   L 850.036, 205.754  "/>
<path d="M 730.793, 263.969   L 848.383, 196.078  "/>
<path d="M 724.387, 257.037   L 845.583, 187.065  "/>
<path d="M 719.075, 249.474   L 841.690, 178.683  "/>
<path d="M 642.118, 283.276   L 696.843, 251.680  "/>
<path d="M 714.792, 241.318   L 836.767, 170.895  "/>
<path d="M 625.312, 282.349   L 704.442, 236.663  "/>
<path d="M 711.581, 232.541   L 830.772, 163.726  "/>
<path d="M 612.866, 278.904   L 707.683, 224.162  "/>
<path d="M 709.502, 223.112   L 823.645, 157.211  "/>
<path d="M 602.698, 274.145   L 708.645, 212.977  "/>
<path d="M 708.677, 212.958   L 815.264, 151.420  "/>
<path d="M 594.226, 268.406   L 707.911, 202.770  "/>
<path d="M 709.535, 201.832   L 805.200, 146.600  "/>
<path d="M 586.993, 261.953   L 705.939, 193.279  "/>
<path d="M 712.597, 189.435   L 792.933, 143.053  "/>
<path d="M 801.248, 138.252   L 827.025, 123.370  "/>
<path d="M 580.948, 254.813   L 702.778, 184.474  "/>
<path d="M 719.738, 174.682   L 776.587, 141.861  "/>
<path d="M 777.000, 141.622   L 842.068, 104.055  "/>
<path d="M 575.929, 247.081   L 698.591, 176.261  "/>
<path d="M 762.193, 139.541   L 847.669, 90.191  "/>
<path d="M 571.986, 238.727   L 693.328, 168.670  "/>
<path d="M 750.689, 135.553   L 849.967, 78.235  "/>
<path d="M 569.085, 229.772   L 687.023, 161.680  "/>
<path d="M 741.206, 130.398   L 850.244, 67.445  "/>
<path d="M 567.377, 220.128   L 679.525, 155.379  "/>
<path d="M 733.165, 124.410   L 849.079, 57.487  "/>
<path d="M 567.056, 209.683   L 670.640, 149.879  "/>
<path d="M 726.402, 117.685   L 846.637, 48.268  "/>
<path d="M 568.460, 198.243   L 660.031, 145.375  "/>
<path d="M 720.725, 110.333   L 843.108, 39.675  "/>
<path d="M 572.472, 185.297   L 646.813, 142.376  "/>
<path d="M 649.702, 140.708   L 692.327, 116.098  "/>
<path d="M 716.109, 102.368   L 838.518, 31.695  "/>
<path d="M 581.789, 169.288   L 628.290, 142.440  "/>
<path d="M 630.287, 141.287   L 702.536, 99.574  "/>
<path d="M 712.526, 93.807   L 832.895, 24.311  "/>
<path d="M 616.759, 138.468   L 706.858, 86.449  "/>
<path d="M 710.055, 84.603   L 826.160, 17.570  "/>
<path d="M 605.925, 134.093   L 708.486, 74.879  "/>
<path d="M 708.828, 74.682   L 818.182, 11.546  "/>
<path d="M 596.861, 128.696   L 708.345, 64.331  "/>
<path d="M 709.031, 63.935   L 808.774, 6.348  "/>
<path d="M 589.284, 122.441   L 706.716, 54.641  "/>
<path d="M 711.231, 52.035   L 797.368, 2.304  "/>
<path d="M 582.832, 115.536   L 703.962, 45.601  "/>
<path d="M 716.687, 38.255   L 782.706, 0.139  "/>
<path d="M 577.498, 107.986   L 700.091, 37.207  "/>
<path d="M 730.838, 19.455   L 759.349, 2.994  "/>
<path d="M 573.171, 99.854   L 695.212, 29.393  "/>
<path d="M 569.938, 91.091   L 689.239, 22.212  "/>
<path d="M 567.811, 81.689   L 682.161, 15.669  "/>
<path d="M 566.959, 71.551   L 673.806, 9.862  "/>
<path d="M 567.756, 60.461   L 663.804, 5.007  "/>
<path d="M 570.736, 48.110   L 651.618, 1.413  "/>
<path d="M 577.670, 33.477   L 635.478, 0.101  "/>
<path d="M 708.662, 141.732   L 708.662, 141.732  "/>
<path d="M 787.219, 259.576   L 838.356, 198.633  "/>
<path d="M 770.047, 269.412   L 845.061, 180.013  "/>
<path d="M 756.281, 275.187   L 848.358, 165.454  "/>
<path d="M 744.268, 278.874   L 849.903, 152.983  "/>
<path d="M 733.310, 281.303   L 850.392, 141.770  "/>
<path d="M 723.279, 282.627   L 849.954, 131.662  "/>
<path d="M 713.847, 283.238   L 848.918, 122.267  "/>
<path d="M 704.876, 283.299   L 847.420, 113.421  "/>
<path d="M 696.274, 282.921   L 845.554, 105.016  "/>
<path d="M 688.242, 281.863   L 843.118, 97.289  "/>
<path d="M 680.454, 280.514   L 746.919, 201.305  "/>
<path d="M 773.973, 169.064   L 840.437, 89.854  "/>
<path d="M 672.934, 278.847   L 731.825, 208.664  "/>
<path d="M 778.598, 152.921   L 837.489, 82.738  "/>
<path d="M 665.821, 276.694   L 720.449, 211.590  "/>
<path d="M 779.505, 141.210   L 834.133, 76.107  "/>
<path d="M 658.855, 274.366   L 710.761, 212.507  "/>
<path d="M 778.725, 131.510   L 830.631, 69.651  "/>
<path d="M 652.236, 271.624   L 702.040, 212.270  "/>
<path d="M 776.978, 122.962   L 826.782, 63.608  "/>
<path d="M 645.812, 268.649   L 694.157, 211.034  "/>
<path d="M 774.392, 115.414   L 822.737, 57.799  "/>
<path d="M 639.604, 265.418   L 686.865, 209.094  "/>
<path d="M 771.215, 108.570   L 818.476, 52.246  "/>
<path d="M 633.677, 261.852   L 680.096, 206.532  "/>
<path d="M 767.516, 102.348   L 813.935, 47.028  "/>
<path d="M 627.864, 258.149   L 673.802, 203.403  "/>
<path d="M 763.342, 96.693   L 809.280, 41.947  "/>
<path d="M 622.405, 254.025   L 667.957, 199.738  "/>
<path d="M 758.718, 91.574   L 804.270, 37.287  "/>
<path d="M 617.020, 249.813   L 662.572, 195.526  "/>
<path d="M 753.635, 87.002   L 799.187, 32.715  "/>
<path d="M 611.978, 245.192   L 657.608, 190.812  "/>
<path d="M 748.131, 82.932   L 793.761, 28.552  "/>
<path d="M 607.051, 240.434   L 653.073, 185.587  "/>
<path d="M 742.197, 79.373   L 788.219, 24.526  "/>
<path d="M 602.395, 235.353   L 648.986, 179.828  "/>
<path d="M 735.816, 76.348   L 782.407, 20.823  "/>
<path d="M 597.938, 230.034   L 645.379, 173.496  "/>
<path d="M 728.954, 73.896   L 776.395, 17.358  "/>
<path d="M 593.678, 224.482   L 642.302, 166.533  "/>
<path d="M 721.562, 72.075   L 770.187, 14.126  "/>
<path d="M 589.721, 218.568   L 639.916, 158.747  "/>
<path d="M 713.480, 71.077   L 763.676, 11.256  "/>
<path d="M 585.876, 212.519   L 638.340, 149.996  "/>
<path d="M 704.588, 71.044   L 757.051, 8.521  "/>
<path d="M 582.461, 205.959   L 637.874, 139.920  "/>
<path d="M 694.585, 72.335   L 749.998, 6.297  "/>
<path d="M 579.205, 199.209   L 639.271, 127.626  "/>
<path d="M 682.720, 75.846   L 742.786, 4.262  "/>
<path d="M 576.258, 192.093   L 645.725, 109.304  "/>
<path d="M 665.797, 85.383   L 735.265, 2.595  "/>
<path d="M 573.686, 184.528   L 727.368, 1.376  "/>
<path d="M 571.369, 176.659   L 719.217, 0.461  "/>
<path d="M 569.505, 168.250   L 710.612, 0.085  "/>
<path d="M 568.147, 159.239   L 701.502, 0.313  "/>
<path d="M 567.275, 149.648   L 691.906, 1.119  "/>
<path d="M 567.035, 139.304   L 681.677, 2.679  "/>
<path d="M 567.659, 127.930   L 670.584, 5.269  "/>
<path d="M 569.539, 115.060   L 658.236, 9.355  "/>
<path d="M 573.407, 99.820   L 643.899, 15.811  "/>
<path d="M 581.235, 79.861   L 625.603, 26.986  "/>
</g>
</svg>